{
  "results": [
    {
      "vote_count": 0,
      "id": 535370,
      "video": false,
      "vote_average": 0,
      "title": "신비아파트: 금빛 도깨비와 비밀의 동굴",
      "popularity": 2,
      "poster_path": "/4S25KX20RHMLAKtOaWRVB5eieaz.jpg",
      "original_language": "ko",
      "original_title": "신비아파트: 금빛 도깨비와 비밀의 동굴",
      "genre_ids": [
        16,
        27,
        14,
        12
      ],
      "backdrop_path": null,
      "adult": false,
      "overview": "",
      "release_date": "2018-07-25"
    },
    {
      "vote_count": 0,
      "id": 519228,
      "video": false,
      "vote_average": 0,
      "title": "Freaks and Geeks: The Documentary",
      "popularity": 1.978,
      "poster_path": "/jAGDNXo0946A9xNm86lzylHiyy2.jpg",
      "original_language": "en",
      "original_title": "Freaks and Geeks: The Documentary",
      "genre_ids": [
        99,
        35
      ],
      "backdrop_path": "/zMXxEHcFkYLckKNTLF28yNf7fYh.jpg",
      "adult": false,
      "overview": "",
      "release_date": "2018-08-02"
    },
    {
      "vote_count": 0,
      "id": 490349,
      "video": false,
      "vote_average": 0,
      "title": "1991",
      "popularity": 1.936,
      "poster_path": "/yFFc7ps8xHtK3Ai4SKdhr0SNuQp.jpg",
      "original_language": "fr",
      "original_title": "1991",
      "genre_ids": [
        18,
        35
      ],
      "backdrop_path": null,
      "adult": false,
      "overview": "",
      "release_date": "2018-07-27"
    },
    {
      "vote_count": 0,
      "id": 520232,
      "video": false,
      "vote_average": 0,
      "title": "Linhas de Sangue",
      "popularity": 1.875,
      "poster_path": "/dv5EEwMZJHVbkks61igCpHZoBy3.jpg",
      "original_language": "pt",
      "original_title": "Linhas de Sangue",
      "genre_ids": [],
      "backdrop_path": "/32691eJcJcL39w6kuDVHq3uSbXg.jpg",
      "adult": false,
      "overview": "",
      "release_date": "2018-07-26"
    },
    {
      "vote_count": 0,
      "id": 509172,
      "video": false,
      "vote_average": 0,
      "title": "Detroit Under S.T.R.E.S.S.",
      "popularity": 1.87,
      "poster_path": "/swJOOzhShAuY4W0QYAy57CVxJdO.jpg",
      "original_language": "en",
      "original_title": "Detroit Under S.T.R.E.S.S.",
      "genre_ids": [
        99
      ],
      "backdrop_path": null,
      "adult": false,
      "overview": "",
      "release_date": "2018-07-29"
    },
    {
      "vote_count": 0,
      "id": 534689,
      "video": false,
      "vote_average": 0,
      "title": "Building 108: Barnacle Bill the Tailor",
      "popularity": 1.842,
      "poster_path": null,
      "original_language": "en",
      "original_title": "Building 108: Barnacle Bill the Tailor",
      "genre_ids": [
        16
      ],
      "backdrop_path": null,
      "adult": false,
      "overview": "",
      "release_date": "2018-07-29"
    },
    {
      "vote_count": 0,
      "id": 502883,
      "video": false,
      "vote_average": 0,
      "title": "Dhrushti",
      "popularity": 1.812,
      "poster_path": "/wWzopWD7wK33UnvSaekQgUdbZhe.jpg",
      "original_language": "te",
      "original_title": "Dhrushti",
      "genre_ids": [
        10749,
        80,
        53
      ],
      "backdrop_path": "/vXp0NFvM8s84VdbI3aRfLajBJVe.jpg",
      "adult": false,
      "overview": "",
      "release_date": "2018-08-03"
    },
    {
      "vote_count": 9,
      "id": 487786,
      "video": false,
      "vote_average": 7.1,
      "title": "暴雪将至",
      "popularity": 1.799,
      "poster_path": "/8t9qtOdU2Jri5B011jkmOkEtu18.jpg",
      "original_language": "zh",
      "original_title": "暴雪将至",
      "genre_ids": [
        80,
        9648,
        53
      ],
      "backdrop_path": "/dVulMuliPlKLqS7T3A6fYar22Pv.jpg",
      "adult": false,
      "overview": "",
      "release_date": "2017-11-17"
    },
    {
      "vote_count": 1,
      "id": 467936,
      "video": false,
      "vote_average": 0,
      "title": "Закон о детях",
      "popularity": 1.795,
      "poster_path": "/sUZA9uLAhEOmO7WemICodTxXokS.jpg",
      "original_language": "en",
      "original_title": "The Children Act",
      "genre_ids": [
        18
      ],
      "backdrop_path": "/rRUmFlDmLzyGJKNsM8ZoqOdm5Zl.jpg",
      "adult": false,
      "overview": "Британская судья Фиона Мэй берется за дело страдающего от рака мальчика, чьи родители отказываются от его лечения из-за религиозных убеждений.",
      "release_date": "2018-03-29"
    },
    {
      "vote_count": 0,
      "id": 527759,
      "video": false,
      "vote_average": 0,
      "title": "Kabir Azabı",
      "popularity": 1.751,
      "poster_path": "/vSPoarrbwSbxRqQzaym3CR1248f.jpg",
      "original_language": "tr",
      "original_title": "Kabir Azabı",
      "genre_ids": [
        27
      ],
      "backdrop_path": null,
      "adult": false,
      "overview": "",
      "release_date": "2018-07-27"
    },
    {
      "vote_count": 0,
      "id": 502872,
      "video": false,
      "vote_average": 0,
      "title": "Nocturno",
      "popularity": 1.746,
      "poster_path": null,
      "original_language": "es",
      "original_title": "Nocturno",
      "genre_ids": [
        53,
        27
      ],
      "backdrop_path": null,
      "adult": false,
      "overview": "",
      "release_date": "2018-07-30"
    },
    {
      "vote_count": 0,
      "id": 530349,
      "video": false,
      "vote_average": 0,
      "title": "Stewart Lee: Content Provider",
      "popularity": 1.737,
      "poster_path": "/9OSUG3tLFg36N5WWW9DBekpmYJm.jpg",
      "original_language": "en",
      "original_title": "Stewart Lee: Content Provider",
      "genre_ids": [
        35
      ],
      "backdrop_path": null,
      "adult": false,
      "overview": "",
      "release_date": "2018-07-28"
    },
    {
      "vote_count": 0,
      "id": 530761,
      "video": false,
      "vote_average": 0,
      "title": "Charmer",
      "popularity": 1.697,
      "poster_path": "/mExB4hYzNbIBrmbmaknVVcA0iK9.jpg",
      "original_language": "en",
      "original_title": "Charmer",
      "genre_ids": [
        10749,
        18,
        35
      ],
      "backdrop_path": null,
      "adult": false,
      "overview": "",
      "release_date": "2018-07-28"
    },
    {
      "vote_count": 0,
      "id": 532231,
      "video": false,
      "vote_average": 0,
      "title": "Chata na prodej",
      "popularity": 1.688,
      "poster_path": "/yYkWiBEPOcuKuVEuCm2OhzkriFF.jpg",
      "original_language": "cs",
      "original_title": "Chata na prodej",
      "genre_ids": [
        35
      ],
      "backdrop_path": "/fl1rkm0DYbEAD0VyKOv31ANQEbE.jpg",
      "adult": false,
      "overview": "",
      "release_date": "2018-07-26"
    },
    {
      "vote_count": 0,
      "id": 528428,
      "video": false,
      "vote_average": 0,
      "title": "Paran Jai Jaliya Re",
      "popularity": 1.687,
      "poster_path": "/9y9ad6SAzKHHDItLFDHNEl6GVoR.jpg",
      "original_language": "bn",
      "original_title": "Paran Jai Jaliya Re",
      "genre_ids": [
        28,
        12,
        10749
      ],
      "backdrop_path": null,
      "adult": false,
      "overview": "",
      "release_date": "2018-07-31"
    },
    {
      "vote_count": 0,
      "id": 460002,
      "video": false,
      "vote_average": 0,
      "title": "Lelam 2",
      "popularity": 1.686,
      "poster_path": "/ghkfNe960bdrHSVh87q2PphqCVt.jpg",
      "original_language": "ml",
      "original_title": "Lelam 2",
      "genre_ids": [
        10751,
        28
      ],
      "backdrop_path": null,
      "adult": false,
      "overview": "",
      "release_date": "2018-07-31"
    },
    {
      "vote_count": 0,
      "id": 527281,
      "video": false,
      "vote_average": 0,
      "title": "センセイ君主",
      "popularity": 1.635,
      "poster_path": "/qedW4Y2rayY8oW815dS4z3xjz9G.jpg",
      "original_language": "ja",
      "original_title": "センセイ君主",
      "genre_ids": [
        10749
      ],
      "backdrop_path": null,
      "adult": false,
      "overview": "",
      "release_date": "2018-08-01"
    },
    {
      "vote_count": 0,
      "id": 517068,
      "video": false,
      "vote_average": 0,
      "title": "ウスケボーイズ",
      "popularity": 1.626,
      "poster_path": "/sX1G3Sj3nxWG7JH1YEC4NhSbES4.jpg",
      "original_language": "ja",
      "original_title": "ウスケボーイズ",
      "genre_ids": [
        18
      ],
      "backdrop_path": null,
      "adult": false,
      "overview": "",
      "release_date": "2018-08-01"
    },
    {
      "vote_count": 0,
      "id": 521127,
      "video": false,
      "vote_average": 0,
      "title": "Reinos",
      "popularity": 1.611,
      "poster_path": "/jA2ArM1rqeMkd1D46nDflAegRXW.jpg",
      "original_language": "es",
      "original_title": "Reinos",
      "genre_ids": [
        18,
        10749
      ],
      "backdrop_path": "/sRpnfixrortOEbS7B8fCNqMW6xL.jpg",
      "adult": false,
      "overview": "",
      "release_date": "2018-08-02"
    },
    {
      "vote_count": 0,
      "id": 533554,
      "video": false,
      "vote_average": 0,
      "title": "A escolha de Isaac",
      "popularity": 1.606,
      "poster_path": "/b6msxH7muzUnR00wUsRh765kkrR.jpg",
      "original_language": "pt",
      "original_title": "A escolha de Isaac",
      "genre_ids": [
        18
      ],
      "backdrop_path": null,
      "adult": false,
      "overview": "",
      "release_date": "2018-08-03"
    }
  ],
  "page": 8,
  "total_results": 190,
  "dates": {
    "maximum": "2018-08-07",
    "minimum": "2018-07-19"
  },
  "total_pages": 10
}