{
  "results": [
    {
      "vote_count": 1664,
      "id": 351286,
      "video": false,
      "vote_average": 6.6,
      "title": "Мир Юрского периода 2",
      "popularity": 272.244,
      "poster_path": "/4VEkflsi7zQmBN6vNpihNrmnRzj.jpg",
      "original_language": "en",
      "original_title": "Jurassic World: Fallen Kingdom",
      "genre_ids": [
        28,
        12,
        878
      ],
      "backdrop_path": "/gBmrsugfWpiXRh13Vo3j0WW55qD.jpg",
      "adult": false,
      "overview": "Оуэн и Клэр предпринимают кампанию по спасению динозавров, которые оказались на острове в смертельной опасности.",
      "release_date": "2018-06-06"
    },
    {
      "vote_count": 311,
      "id": 363088,
      "video": false,
      "vote_average": 7.2,
      "title": "Человек-муравей и Оса",
      "popularity": 204.317,
      "poster_path": "/nCriJDpTP8H1iIg5XumTm9LdBA6.jpg",
      "original_language": "en",
      "original_title": "Ant-Man and the Wasp",
      "genre_ids": [
        28,
        12,
        14,
        35,
        878
      ],
      "backdrop_path": "/6P3c80EOm7BodndGBUAJHHsHKrp.jpg",
      "adult": false,
      "overview": "Скотт Лэнг, известный также, как Человек-Муравей уже заслужил право оказаться в команде Мстителей, но желание быть ближе к собственной дочке удерживает его в родном Сан-Франциско — до тех пор, пока доктор Хэнк Пим, создавший когда-то изменяющий размеры своего владельца чудо-костюм, не призывает Скотта присоединиться к новой, опасной миссии. А помогать в противостоянии с коварным врагом Человеку-Муравью будет новая напарница — Оса.",
      "release_date": "2018-07-04"
    },
    {
      "vote_count": 904,
      "id": 260513,
      "video": false,
      "vote_average": 7.7,
      "title": "Суперсемейка 2",
      "popularity": 159.763,
      "poster_path": "/4nfcsGUwVQosKCBGb5SDTseitPl.jpg",
      "original_language": "en",
      "original_title": "Incredibles 2",
      "genre_ids": [
        28,
        12,
        16,
        10751
      ],
      "backdrop_path": "/mabuNsGJgRuCTuGqjFkWe1xdu19.jpg",
      "adult": false,
      "overview": "После событий первой части суперсемейка пользуется повышенным вниманием со стороны журналистов. Неожиданно оказалось, что обаятельная Миссис Исключительная гораздо лучше смотрится на экране телевизора, чем ее муж. Мистеру Исключительному все чаще приходится сидеть дома и приглядывать за детьми, у каждого из которых есть свои причины быть недовольным собственными суперспособностями. Однако семейным проблемам предстоит отступить на второй план, когда окажется, что спокойствию Суперсемейки угрожает новый могущественный враг.",
      "release_date": "2018-06-14"
    },
    {
      "vote_count": 1959,
      "id": 447332,
      "video": false,
      "vote_average": 7.2,
      "title": "Тихое место",
      "popularity": 131.591,
      "poster_path": "/v7TZQ2X5tsTTfpdyjXaRCTR4P4d.jpg",
      "original_language": "en",
      "original_title": "A Quiet Place",
      "genre_ids": [
        18,
        27,
        53,
        878
      ],
      "backdrop_path": "/roYyPiQDQKmIKUEhO912693tSja.jpg",
      "adult": false,
      "overview": "Фильм рассказывает о семье из четырех человек, вынужденных жить в полной тишине после того, как таинственные существа, охотящиеся по звуку, начинают угрожать их существованию. Стоит им услышать вас – и они откроют на вас охоту.",
      "release_date": "2018-04-03"
    },
    {
      "vote_count": 130,
      "id": 442249,
      "video": false,
      "vote_average": 6.4,
      "title": "Судная ночь. Начало",
      "popularity": 97.314,
      "poster_path": "/i2S3IPfeob5TVTUgVPucpRmeBuY.jpg",
      "original_language": "en",
      "original_title": "The First Purge",
      "genre_ids": [
        28,
        27,
        878,
        53
      ],
      "backdrop_path": "/8FhHeKdeFIhf0pk4RkG1HqbhxRX.jpg",
      "adult": false,
      "overview": "Хотели бы вы жить в идеальном мире, где нет преступности, безработицы и войн? Единственная плата за такое счастливое будущее – это одна ночь абсолютного беззакония в году. Ночь, когда дозволено всё. Согласны поучаствовать в таком социальном эксперименте?",
      "release_date": "2018-07-04"
    },
    {
      "vote_count": 2887,
      "id": 383498,
      "video": false,
      "vote_average": 7.6,
      "title": "Дэдпул 2",
      "popularity": 69.528,
      "poster_path": "/ukbLruQbrchScy3jTXgeAz9IWDL.jpg",
      "original_language": "en",
      "original_title": "Deadpool 2",
      "genre_ids": [
        28,
        35,
        878
      ],
      "backdrop_path": "/3P52oz9HPQWxcwHOwxtyrVV1LKi.jpg",
      "adult": false,
      "overview": "Выжив после смертоносной атаки быков, изуродованный шеф-повар кафетерия пытается исполнить свою мечту - стать самым горячим барменом в Мэйберри - и в то же время справиться с потерянными вкусовыми ощущениями. Чтобы восстановить остроту чувств, а еще и потоковый накопитель, Уэйд должен будет сразиться с ниндзями, якудзой и стаей сексуально агрессивных собачек, в то время как он объедет весь земной шар и поймет важность семьи, дружбы и вкуса - а заодно обнаружит новую тягу к приключениям и заработает желанную надпись на кружке «Лучший любовник в мире».",
      "release_date": "2018-05-15"
    },
    {
      "vote_count": 569,
      "id": 460019,
      "video": false,
      "vote_average": 6,
      "title": "Правда или действие",
      "popularity": 61.715,
      "poster_path": "/po4JZAYWs6VIejlSOxOehnUNRaI.jpg",
      "original_language": "en",
      "original_title": "Truth or Dare",
      "genre_ids": [
        53,
        27
      ],
      "backdrop_path": "/eQ5xu2pQ5Kergubto5PbbUzey28.jpg",
      "adult": false,
      "overview": "Обычная игра «Правда или действие» превращается в жестокую гонку со смертью, когда к процессу подключается нечто сверхъестественное. Стоит кому-то из участников соврать или не выполнить положенное действие, его ждет жестокая расправа. Кто в итоге сможет выйти победителем в жестокой игре?",
      "release_date": "2018-04-12"
    },
    {
      "vote_count": 317,
      "id": 437557,
      "video": false,
      "vote_average": 6.2,
      "title": "Секса не будет!",
      "popularity": 61.246,
      "poster_path": "/srZVXPzTHCZu1G6j1OpnSZPPmNS.jpg",
      "original_language": "en",
      "original_title": "Blockers",
      "genre_ids": [
        35
      ],
      "backdrop_path": "/bUcHY7CrYWieikW8fFkL3Dxnt4H.jpg",
      "adult": false,
      "overview": "У трех подруг грандиозные планы на выпускной. Случайно об этом узнав, их родители решают во что бы то ни стало предотвратить непоправимое.",
      "release_date": "2018-03-14"
    },
    {
      "vote_count": 5,
      "id": 493006,
      "video": false,
      "vote_average": 3.6,
      "title": "Детектив Конан 22",
      "popularity": 55.121,
      "poster_path": "/mMWV5MXn2pkDnnI4vWpy3dRWdNC.jpg",
      "original_language": "ja",
      "original_title": "名探偵コナン ゼロの執行人",
      "genre_ids": [
        16,
        80,
        9648,
        28,
        18
      ],
      "backdrop_path": "/kEqeponciiz6TyuKWtnKSzXzbGa.jpg",
      "adult": false,
      "overview": "",
      "release_date": "2018-04-13"
    },
    {
      "vote_count": 164,
      "id": 460668,
      "video": false,
      "vote_average": 6.3,
      "title": "Красотка на всю голову",
      "popularity": 52.009,
      "poster_path": "/eSJY093pNVonIi7Fs7u0wUSem10.jpg",
      "original_language": "en",
      "original_title": "I Feel Pretty",
      "genre_ids": [
        35
      ],
      "backdrop_path": "/eMO51xOIJYtlMZLpDUlrnq0mz8k.jpg",
      "adult": false,
      "overview": "Ее жизнь была сплошной чередой попыток похудеть. Однажды она бьется головой о велотренажер и обретает полную уверенность в том, что теперь она прекрасна. Только вот в глазах других людей она совсем не изменилась.",
      "release_date": "2018-04-19"
    },
    {
      "vote_count": 1148,
      "id": 449176,
      "video": false,
      "vote_average": 8.2,
      "title": "С любовью, Саймон",
      "popularity": 40.24,
      "poster_path": "/eTrrZ0CnLMDc9DXlRpfC9wVfbkL.jpg",
      "original_language": "en",
      "original_title": "Love, Simon",
      "genre_ids": [
        35,
        18,
        10749
      ],
      "backdrop_path": "/rqMEeajyzSF4PpJtdCB816Iz8Vr.jpg",
      "adult": false,
      "overview": "Старшеклассник Саймон скрывает от друзей свою гомосексуальность, но его переписка с анонимным возлюбленным попадает в чужие руки. Школьный «клоун» Мартин угрожает разоблачить Саймона, если тот не поможет ему завязать роман с местной красавицей.",
      "release_date": "2018-02-16"
    },
    {
      "vote_count": 603,
      "id": 399174,
      "video": false,
      "vote_average": 7.8,
      "title": "Остров собак",
      "popularity": 40.023,
      "poster_path": "/phspK8CoyEoVWDmxCdU3QzUWf4P.jpg",
      "original_language": "en",
      "original_title": "Isle of Dogs",
      "genre_ids": [
        12,
        35,
        16
      ],
      "backdrop_path": "/jB5zHG1eHh0OC1S61itXNApZlLD.jpg",
      "adult": false,
      "overview": "История 12-летнего мальчика Атари Кобаяши, опекаемого коррумпированным мэром Кобаяши. Когда по Указу последнего все домашние собаки города Мегасаки изгоняются на громадную свалку, Атари в одиночку отправляется на миниатюрном летательном аппарате на мусорный остров, чтобы найти своего верного пса по прозвищу Спотс. Там на острове вместе со стаей новых друзей-дворняг он начнет эпичное путешествие, которое решит будущую судьбу всей Префектуры.",
      "release_date": "2018-03-23"
    },
    {
      "vote_count": 113,
      "id": 400535,
      "video": false,
      "vote_average": 6.6,
      "title": "Убийца 2: Против всех",
      "popularity": 37.037,
      "poster_path": "/bDaspvC4WsuLkrU3Uy9zOYSdFhO.jpg",
      "original_language": "en",
      "original_title": "Sicario: Day of the Soldado",
      "genre_ids": [
        28,
        80,
        18,
        53
      ],
      "backdrop_path": "/uDRb7zVqtqMtXS8bnqYJ17SlhK8.jpg",
      "adult": false,
      "overview": "Фильм раскроет историю загадочного и мрачного мексиканца Алехандро Гиллике. Вместе с агентами ЦРУ он вскрывает «дыры» на границе США, которые дают путь для наркотрафика, нелегалов и даже для террористов.",
      "release_date": "2018-06-27"
    },
    {
      "vote_count": 521,
      "id": 402900,
      "video": false,
      "vote_average": 6.7,
      "title": "8 подруг Оушена",
      "popularity": 36.699,
      "poster_path": "/febaSytebwkMYqHozI0vlhhbrt4.jpg",
      "original_language": "en",
      "original_title": "Ocean's 8",
      "genre_ids": [
        80,
        35,
        28,
        53
      ],
      "backdrop_path": "/zBIfBeStaDdDdhBrSx8InhgFUVa.jpg",
      "adult": false,
      "overview": "Дэбби Оушен планирует совершить ограбление века во время ежегодного престижного бала. Для того, чтобы воплотить задумку в жизнь, она собирает команду из настоящих профи своего дела.",
      "release_date": "2018-06-07"
    },
    {
      "vote_count": 118,
      "id": 440471,
      "video": false,
      "vote_average": 4.5,
      "title": "План побега 2",
      "popularity": 36.557,
      "poster_path": "/f93jC3PQ480YWJw5c85CMezVUT3.jpg",
      "original_language": "en",
      "original_title": "Escape Plan 2: Hades",
      "genre_ids": [
        80,
        28,
        53
      ],
      "backdrop_path": "/xIAaN3AQqaJiN5RJ0WsmBady8Hq.jpg",
      "adult": false,
      "overview": "Рэй Бреслин готовится к новому испытанию. На этот раз ему предстоит вызволить из суперсовременной тюрьмы своего напарника.",
      "release_date": "2018-06-05"
    },
    {
      "vote_count": 1170,
      "id": 348350,
      "video": false,
      "vote_average": 6.8,
      "title": "Хан Соло: Звёздные Войны. Истории",
      "popularity": 35.374,
      "poster_path": "/syDObMIKfE6MI5w9DAlofSr0QQl.jpg",
      "original_language": "en",
      "original_title": "Solo: A Star Wars Story",
      "genre_ids": [
        28,
        12,
        878
      ],
      "backdrop_path": "/7LZ0K4FsALrt7OeNIGOVLNuKQRU.jpg",
      "adult": false,
      "overview": "Фильм расскажет о похождениях юного космического сорвиголовы Хана Соло и его верного напарника Чубакки и о том, как они стали самыми быстрыми пилотами и самыми хитрыми контрабандистами далёкой Галактики.",
      "release_date": "2018-05-23"
    },
    {
      "vote_count": 1685,
      "id": 401981,
      "video": false,
      "vote_average": 6.4,
      "title": "Красный воробей",
      "popularity": 33.18,
      "poster_path": "/rkMuZ4c4OdElYL1M8cyttRHKV1J.jpg",
      "original_language": "en",
      "original_title": "Red Sparrow",
      "genre_ids": [
        9648,
        53
      ],
      "backdrop_path": "/sGzuQYSTwJvLBc2PnuSVLHhuFeh.jpg",
      "adult": false,
      "overview": "Завербованная и обученная секретными российскими спецслужбами Доминика Егорова на одном из заданий должна вывести на чистую воду агента ЦРУ, однако дальнейшие события ставят под угрозу выполнение важного поручения.",
      "release_date": "2018-02-28"
    },
    {
      "vote_count": 57,
      "id": 50022,
      "video": false,
      "vote_average": 6.4,
      "title": "Суперполицейские 2",
      "popularity": 33.078,
      "poster_path": "/57SZgdugVClIy22rfnANeBJ5KsN.jpg",
      "original_language": "en",
      "original_title": "Super Troopers 2",
      "genre_ids": [
        35,
        80,
        9648
      ],
      "backdrop_path": "/lXtS4sFvOtwnFBiezzJvOMC7b9W.jpg",
      "adult": false,
      "overview": "",
      "release_date": "2018-04-20"
    },
    {
      "vote_count": 483,
      "id": 419478,
      "video": false,
      "vote_average": 7.8,
      "title": "Полночное солнце",
      "popularity": 31.397,
      "poster_path": "/dzb5v6mrtBzedl8P3QHuQ7pdirr.jpg",
      "original_language": "en",
      "original_title": "Midnight Sun",
      "genre_ids": [
        10749,
        18
      ],
      "backdrop_path": "/9T8sj5io4SGCBTHsk5H8LGcfKVe.jpg",
      "adult": false,
      "overview": "Ночами 17-летняя Кэти сочиняет свои красивые песни под гитару, а днем вынуждена скрываться во мраке: ее нежная кожа не выносит дневного света. Но однажды в полночь она встречает Чарли, веселого парня с копной рыжих, как солнце, волос и очаровательной улыбкой. Внезапная и страстная любовь яркой вспышкой озаряет жизнь больной девушки. И теперь ради возлюбленного она готова сгореть в лучах света безумного чувства…",
      "release_date": "2018-03-22"
    },
    {
      "vote_count": 547,
      "id": 395990,
      "video": false,
      "vote_average": 5.6,
      "title": "Жажда смерти",
      "popularity": 30.94,
      "poster_path": "/w1HDoS3NdOFUv2FxoTxjLTNbVjA.jpg",
      "original_language": "en",
      "original_title": "Death Wish",
      "genre_ids": [
        28,
        80,
        18,
        53
      ],
      "backdrop_path": "/uQqQvmptJLPTcWDrZXn22p7j7s3.jpg",
      "adult": false,
      "overview": "Добропорядочный семьянин становится настоящей машиной для убийства после того, как уличная банда убивает его жену и калечит дочь.",
      "release_date": "2018-03-02"
    }
  ],
  "page": 1,
  "total_results": 966,
  "dates": {
    "maximum": "2018-07-09",
    "minimum": "2018-05-22"
  },
  "total_pages": 49
}