{
  "page": 1,
  "total_results": 19988,
  "total_pages": 1000,
  "results": [
    {
      "vote_count": 1675,
      "id": 351286,
      "video": false,
      "vote_average": 6.6,
      "title": "Мир Юрского периода 2",
      "popularity": 272.244,
      "poster_path": "/4VEkflsi7zQmBN6vNpihNrmnRzj.jpg",
      "original_language": "en",
      "original_title": "Jurassic World: Fallen Kingdom",
      "genre_ids": [
        28,
        12,
        878
      ],
      "backdrop_path": "/gBmrsugfWpiXRh13Vo3j0WW55qD.jpg",
      "adult": false,
      "overview": "Оуэн и Клэр предпринимают кампанию по спасению динозавров, которые оказались на острове в смертельной опасности.",
      "release_date": "2018-06-06"
    },
    {
      "vote_count": 311,
      "id": 363088,
      "video": false,
      "vote_average": 7.2,
      "title": "Человек-муравей и Оса",
      "popularity": 204.317,
      "poster_path": "/nCriJDpTP8H1iIg5XumTm9LdBA6.jpg",
      "original_language": "en",
      "original_title": "Ant-Man and the Wasp",
      "genre_ids": [
        28,
        12,
        14,
        35,
        878
      ],
      "backdrop_path": "/6P3c80EOm7BodndGBUAJHHsHKrp.jpg",
      "adult": false,
      "overview": "Скотт Лэнг, известный также, как Человек-Муравей уже заслужил право оказаться в команде Мстителей, но желание быть ближе к собственной дочке удерживает его в родном Сан-Франциско — до тех пор, пока доктор Хэнк Пим, создавший когда-то изменяющий размеры своего владельца чудо-костюм, не призывает Скотта присоединиться к новой, опасной миссии. А помогать в противостоянии с коварным врагом Человеку-Муравью будет новая напарница — Оса.",
      "release_date": "2018-07-04"
    },
    {
      "vote_count": 904,
      "id": 260513,
      "video": false,
      "vote_average": 7.7,
      "title": "Суперсемейка 2",
      "popularity": 159.763,
      "poster_path": "/4nfcsGUwVQosKCBGb5SDTseitPl.jpg",
      "original_language": "en",
      "original_title": "Incredibles 2",
      "genre_ids": [
        28,
        12,
        16,
        10751
      ],
      "backdrop_path": "/mabuNsGJgRuCTuGqjFkWe1xdu19.jpg",
      "adult": false,
      "overview": "После событий первой части суперсемейка пользуется повышенным вниманием со стороны журналистов. Неожиданно оказалось, что обаятельная Миссис Исключительная гораздо лучше смотрится на экране телевизора, чем ее муж. Мистеру Исключительному все чаще приходится сидеть дома и приглядывать за детьми, у каждого из которых есть свои причины быть недовольным собственными суперспособностями. Однако семейным проблемам предстоит отступить на второй план, когда окажется, что спокойствию Суперсемейки угрожает новый могущественный враг.",
      "release_date": "2018-06-14"
    },
    {
      "vote_count": 7179,
      "id": 284053,
      "video": false,
      "vote_average": 7.5,
      "title": "Тор: Рагнарёк",
      "popularity": 150.406,
      "poster_path": "/2NEzIdBAgm4kSYXF4OH86qs3a0u.jpg",
      "original_language": "en",
      "original_title": "Thor: Ragnarok",
      "genre_ids": [
        28,
        12,
        14,
        878,
        35
      ],
      "backdrop_path": "/kaIfm5ryEOwYg8mLbq8HkPuM1Fo.jpg",
      "adult": false,
      "overview": "Вернувшись в Асгард в поисках таинственного врага, ведущего охоту на Камни Бесконечности, Тор обнаруживает, что действия его брата Локи, захватившего трон Асгарда, привели к приближению наиболее страшного события — Рагнарёка. По легенде, это ознаменует последнюю битву Асгарда, последствием которой станет его полное уничтожение. В попытке предотвратить это событие, Тору предстоит прибегнуть к помощи своего товарища из Мстителей — Халка. Вместе, им предстоит столкнуться лицом к лицу со злейшим врагом всех девяти миров — огненным демоном Суртуром, целью которого является исполнение пророчества о Рагнарёке и уничтожение девяти миров.",
      "release_date": "2017-10-25"
    },
    {
      "vote_count": 2754,
      "id": 333339,
      "video": false,
      "vote_average": 7.7,
      "title": "Первому игроку приготовиться",
      "popularity": 144.191,
      "poster_path": "/tIgYNUuBeYaFSeVsQfQhidYkE9W.jpg",
      "original_language": "en",
      "original_title": "Ready Player One",
      "genre_ids": [
        12,
        878,
        14
      ],
      "backdrop_path": "/q7fXcrDPJcf6t3rzutaNwTzuKP1.jpg",
      "adult": false,
      "overview": "Действие фильма происходит в 2045 году, мир погружается в хаос и находится на грани коллапса. Люди ищут спасения в игре OASIS — огромной вселенной виртуальной реальности. Ее создатель, гениальный и эксцентричный Джеймс Холлидэй, оставляет уникальное завещание. Все его колоссальное состояние получит игрок, первым обнаруживший цифровое «пасхальное яйцо», которое миллиардер спрятал где-то на просторах OASISа. Запущенный им квест охватывает весь мир. Совершенно негероический парень по имени Уэйд Уоттс решает принять участие в состязании, с головой бросаясь в головокружительную, искажающую реальность погоню за сокровищами по фантастической вселенной, полной загадок, открытий и опасностей.",
      "release_date": "2018-03-28"
    },
    {
      "vote_count": 1959,
      "id": 447332,
      "video": false,
      "vote_average": 7.2,
      "title": "Тихое место",
      "popularity": 131.591,
      "poster_path": "/v7TZQ2X5tsTTfpdyjXaRCTR4P4d.jpg",
      "original_language": "en",
      "original_title": "A Quiet Place",
      "genre_ids": [
        18,
        27,
        53,
        878
      ],
      "backdrop_path": "/roYyPiQDQKmIKUEhO912693tSja.jpg",
      "adult": false,
      "overview": "Фильм рассказывает о семье из четырех человек, вынужденных жить в полной тишине после того, как таинственные существа, охотящиеся по звуку, начинают угрожать их существованию. Стоит им услышать вас – и они откроют на вас охоту.",
      "release_date": "2018-04-03"
    },
    {
      "vote_count": 5489,
      "id": 299536,
      "video": false,
      "vote_average": 8.4,
      "title": "Мстители: Война бесконечности",
      "popularity": 130.363,
      "poster_path": "/qIUFg6tzKeK5bUDguonWCAFceNB.jpg",
      "original_language": "en",
      "original_title": "Avengers: Infinity War",
      "genre_ids": [
        12,
        878,
        14,
        28
      ],
      "backdrop_path": "/bOGkgRGdhrBYJSLpXaxhXVstddV.jpg",
      "adult": false,
      "overview": "Пока Мстители и их союзники продолжают защищать мир от различных опасностей, с которыми не смог бы справиться один супергерой, новая угроза возникает из космоса: Танос. Межгалактический тиран преследует цель собрать все шесть Камней Бесконечности — артефакты невероятной силы, с помощью которых можно менять реальность по своему желанию. Всё, с чем Мстители сталкивались ранее, вело к этому моменту — судьба Земли никогда ещё не была столь неопределённой.",
      "release_date": "2018-04-25"
    },
    {
      "vote_count": 130,
      "id": 442249,
      "video": false,
      "vote_average": 6.4,
      "title": "Судная ночь. Начало",
      "popularity": 97.314,
      "poster_path": "/i2S3IPfeob5TVTUgVPucpRmeBuY.jpg",
      "original_language": "en",
      "original_title": "The First Purge",
      "genre_ids": [
        28,
        27,
        878,
        53
      ],
      "backdrop_path": "/8FhHeKdeFIhf0pk4RkG1HqbhxRX.jpg",
      "adult": false,
      "overview": "Хотели бы вы жить в идеальном мире, где нет преступности, безработицы и войн? Единственная плата за такое счастливое будущее – это одна ночь абсолютного беззакония в году. Ночь, когда дозволено всё. Согласны поучаствовать в таком социальном эксперименте?",
      "release_date": "2018-07-04"
    },
    {
      "vote_count": 1170,
      "id": 427641,
      "video": false,
      "vote_average": 6,
      "title": "Рэмпейдж",
      "popularity": 95.405,
      "poster_path": "/bxbFh3VqwGhijOGXYLJYVhwAJ8S.jpg",
      "original_language": "en",
      "original_title": "Rampage",
      "genre_ids": [
        28,
        12,
        878,
        14
      ],
      "backdrop_path": "/wrqUiMXttHE4UBFMhLHlN601MZh.jpg",
      "adult": false,
      "overview": "Приматолог Дэвис Окойи предпочитает держаться подальше от людей и дружит с Джорджем, удивительно умным альфа-самцом — гориллой, которого он воспитывал с самого рождения. Но вышедший из-под контроля генетический эксперимент превращает послушную обезьяну в яростного монстра. Более того, вскоре обнаруживается, что существуют и другие модифицированные хищники. Пока свежесозданные чудовища превращают в руины Северную Америку, стирая с лица Земли все, что попадается у них на пути, Окойи вместе с опальным генным инженером пытается изобрести антидот, прорываясь по бесконечному полю боя не только, чтобы предотвратить глобальную катастрофу, но и спасти бесстрашное существо, которое когда-то было его другом.",
      "release_date": "2018-04-12"
    },
    {
      "vote_count": 11444,
      "id": 135397,
      "video": false,
      "vote_average": 6.5,
      "title": "Мир Юрского периода",
      "popularity": 89.409,
      "poster_path": "/cinSiJ51ykFkEYhQ3AopXnj6Q2D.jpg",
      "original_language": "en",
      "original_title": "Jurassic World",
      "genre_ids": [
        28,
        12,
        878,
        53
      ],
      "backdrop_path": "/t5KONotASgVKq4N19RyhIthWOPG.jpg",
      "adult": false,
      "overview": "Продолжение знаменитой франшизы про возрождение динозавров на нашей планете.  Тысячи людей спешат увидеть Мир Юрского периода, но безопасное на первый взгляд развлечение может обернуться угрозой для их жизней…",
      "release_date": "2015-06-06"
    },
    {
      "vote_count": 2231,
      "id": 337167,
      "video": false,
      "vote_average": 6,
      "title": "Пятьдесят оттенков свободы",
      "popularity": 80.732,
      "poster_path": "/uZ5ERtY6q8GvPZmJmuW6hQRQ1nO.jpg",
      "original_language": "en",
      "original_title": "Fifty Shades Freed",
      "genre_ids": [
        18,
        10749
      ],
      "backdrop_path": "/9ywA15OAiwjSTvg3cBs9B7kOCBF.jpg",
      "adult": false,
      "overview": "Кристиан и Анастейша поженились и живут в своё удовольствие, наслаждаясь обществом друг друга. Но жизнь новоиспечённой миссис Грей находится в опасности, поскольку объявляется недруг, который собирается мстить, используя свою богатую фантазию. Призраки прошлого Кристиана вновь вернулись, а тучи над супругами сгущаются всё сильнее.",
      "release_date": "2018-01-17"
    },
    {
      "vote_count": 8,
      "id": 318484,
      "video": false,
      "vote_average": 5.3,
      "title": "Возвращение к жизни",
      "popularity": 74.396,
      "poster_path": "/e6n3Tf86MJgqtF34bLogGOpkNQf.jpg",
      "original_language": "hi",
      "original_title": "Qayamat: City Under Threat",
      "genre_ids": [
        28,
        18,
        80
      ],
      "backdrop_path": "/bsiSNHnzU9brwsP1hVs1AQMt9hl.jpg",
      "adult": false,
      "overview": "Группа особо опасных преступников с целью получения крупного выкупа захватывает в Элпхинстонской тюрьме 213 туристов, пришедших туда на экскурсию. Но основная опасность состоит не в том, что они готовы убить заложников, а в том, что в их руки попал новый смертоносный вирус и они готовы с помощью ракетных установок заразить им основные источники водоснабжения города. Тюрьма расположена на отдельном острове в океане и попасть туда незамеченным невозможно. Лишь один человек в своё время бежал оттуда и знает как можно проникнуть туда…",
      "release_date": "2003-07-11"
    },
    {
      "vote_count": 6684,
      "id": 284054,
      "video": false,
      "vote_average": 7.3,
      "title": "Чёрная Пантера",
      "popularity": 74.146,
      "poster_path": "/oHBytBrp37GpB6U4dNthMMMqQUS.jpg",
      "original_language": "en",
      "original_title": "Black Panther",
      "genre_ids": [
        28,
        12,
        14,
        878
      ],
      "backdrop_path": "/6ELJEzQJ3Y45HczvreC3dg0GV5R.jpg",
      "adult": false,
      "overview": "С первого взгляда можно решить, что Ваканда — обычная территория дикой Африки, но это не так. Здесь, в недрах пустынных земель, скрываются залежи уникального металла, способного поглощать вибрацию. Многие пытались добраться до него, разоряя всё на своём пути и принося смерть аборигенам, но каждый раз таинственный дух саванны — Чёрная Пантера — вставал на защиту угнетённых.  Спустя много лет беда снова приходит в Ваканду, и в этот раз враг заручился поддержкой современных технологий. Когда шансов почти не остаётся, Т`Чалла, молодой принц Ваканды, узнаёт, что именно ему предстоит возродить легенду и продолжить вечную борьбу, надев маску Чёрной Пантеры.",
      "release_date": "2018-02-13"
    },
    {
      "vote_count": 8408,
      "id": 102899,
      "video": false,
      "vote_average": 7,
      "title": "Человек-муравей",
      "popularity": 70.426,
      "poster_path": "/r4zPrHRtJd3eBH7sPQn9ypp1Gvk.jpg",
      "original_language": "en",
      "original_title": "Ant-Man",
      "genre_ids": [
        878,
        28,
        12
      ],
      "backdrop_path": "/kvXLZqY0Ngl1XSw7EaMQO0C1CCj.jpg",
      "adult": false,
      "overview": "Вооружившись удивительной способностью уменьшаться в размере, но обладать при этом большой силой, мошенник Скотт Лэнг должен стать героем и помочь своему наставнику, доктору Хэнку Пиму, сохранить в тайне существование костюма Человека-муравья от угроз нового поколения.",
      "release_date": "2015-07-14"
    },
    {
      "vote_count": 2887,
      "id": 383498,
      "video": false,
      "vote_average": 7.6,
      "title": "Дэдпул 2",
      "popularity": 69.528,
      "poster_path": "/ukbLruQbrchScy3jTXgeAz9IWDL.jpg",
      "original_language": "en",
      "original_title": "Deadpool 2",
      "genre_ids": [
        28,
        35,
        878
      ],
      "backdrop_path": "/3P52oz9HPQWxcwHOwxtyrVV1LKi.jpg",
      "adult": false,
      "overview": "Выжив после смертоносной атаки быков, изуродованный шеф-повар кафетерия пытается исполнить свою мечту - стать самым горячим барменом в Мэйберри - и в то же время справиться с потерянными вкусовыми ощущениями. Чтобы восстановить остроту чувств, а еще и потоковый накопитель, Уэйд должен будет сразиться с ниндзями, якудзой и стаей сексуально агрессивных собачек, в то время как он объедет весь земной шар и поймет важность семьи, дружбы и вкуса - а заодно обнаружит новую тягу к приключениям и заработает желанную надпись на кружке «Лучший любовник в мире».",
      "release_date": "2018-05-15"
    },
    {
      "vote_count": 2032,
      "id": 338970,
      "video": false,
      "vote_average": 6.2,
      "title": "Tomb Raider: Лара Крофт",
      "popularity": 69.4,
      "poster_path": "/axjw5ouuJtHfFeHPPho9vGGMg2e.jpg",
      "original_language": "en",
      "original_title": "Tomb Raider",
      "genre_ids": [
        28,
        12,
        14,
        18,
        9648,
        53
      ],
      "backdrop_path": "/jLYhKjSC8LyXzWZc6VwPjMYP2wy.jpg",
      "adult": false,
      "overview": "Лара Крофт - весьма самостоятельная дочь эксцентричного искателя приключений, который пропал, едва она стала подростком. Теперь ей двадцать один, она бесцельно проживает свою жизнь, курьером рассекая на байке по забитым улицам восточного Лондона, а ее заработка едва хватает на оплату квартиры и занятий в колледже. Решительно настроенная пробиться сама, она отказывается брать на себя руководство глобальной империей отца, столь же категорично отвергая мысль о том, что он действительно пропал. Слыша советы о том, что ей нужно смириться с этим фактом и жить дальше после семи лет бесплодных поисков, Лара уже и сама не понимает, что же заставляет ее распутывать обстоятельства его таинственной смерти.",
      "release_date": "2018-03-05"
    },
    {
      "vote_count": 2770,
      "id": 238636,
      "video": false,
      "vote_average": 6.6,
      "title": "Судная ночь 2",
      "popularity": 67.301,
      "poster_path": "/7YHq527yxe9KdgG93zwjWJqOnCK.jpg",
      "original_language": "en",
      "original_title": "The Purge: Anarchy",
      "genre_ids": [
        27,
        53
      ],
      "backdrop_path": "/zWGAnbxjjwY3xFGuOeR26LGbBlG.jpg",
      "adult": false,
      "overview": "Добро пожаловать в идеальный мир будущего, мир без преступности и войн. И только один раз в году роскошная спокойная жизнь сменяется анархией. Этой ночью дозволено все: во тьме улиц одни жаждут мести, другие ищут развлечений, остальные пытаются дожить до рассвета...",
      "release_date": "2014-07-17"
    },
    {
      "vote_count": 3462,
      "id": 158015,
      "video": false,
      "vote_average": 6.1,
      "title": "Судная ночь",
      "popularity": 66.786,
      "poster_path": "/wG6foc3GRMC6LYFyQuKTImVY9KB.jpg",
      "original_language": "en",
      "original_title": "The Purge",
      "genre_ids": [
        878,
        27,
        53
      ],
      "backdrop_path": "/1sZ9Nnic1ldHhHttAMDmNxaNM04.jpg",
      "adult": false,
      "overview": "Мир будущего — мир без преступности… безработицы… войн. И все это благодаря одной ночи в году, когда можно отправить на тот свет любого — злобного босса, шумных соседей, надоевших родственников. В Судную ночь дозволено все — главное дожить до рассвета.",
      "release_date": "2013-05-31"
    },
    {
      "vote_count": 569,
      "id": 460019,
      "video": false,
      "vote_average": 6,
      "title": "Правда или действие",
      "popularity": 61.715,
      "poster_path": "/po4JZAYWs6VIejlSOxOehnUNRaI.jpg",
      "original_language": "en",
      "original_title": "Truth or Dare",
      "genre_ids": [
        53,
        27
      ],
      "backdrop_path": "/eQ5xu2pQ5Kergubto5PbbUzey28.jpg",
      "adult": false,
      "overview": "Обычная игра «Правда или действие» превращается в жестокую гонку со смертью, когда к процессу подключается нечто сверхъестественное. Стоит кому-то из участников соврать или не выполнить положенное действие, его ждет жестокая расправа. Кто в итоге сможет выйти победителем в жестокой игре?",
      "release_date": "2018-04-12"
    },
    {
      "vote_count": 317,
      "id": 437557,
      "video": false,
      "vote_average": 6.2,
      "title": "Секса не будет!",
      "popularity": 61.246,
      "poster_path": "/srZVXPzTHCZu1G6j1OpnSZPPmNS.jpg",
      "original_language": "en",
      "original_title": "Blockers",
      "genre_ids": [
        35
      ],
      "backdrop_path": "/bUcHY7CrYWieikW8fFkL3Dxnt4H.jpg",
      "adult": false,
      "overview": "У трех подруг грандиозные планы на выпускной. Случайно об этом узнав, их родители решают во что бы то ни стало предотвратить непоправимое.",
      "release_date": "2018-03-14"
    }
  ]
}