{
  "page": 1,
  "total_results": 1922,
  "total_pages": 97,
  "results": [
    {
      "vote_count": 3324,
      "id": 254,
      "video": false,
      "vote_average": 6.7,
      "title": "Кинг Конг",
      "popularity": 12.462,
      "poster_path": "/l69qjj148czI5ZejUm8xhb3EdKX.jpg",
      "original_language": "en",
      "original_title": "King Kong",
      "genre_ids": [
        12,
        18,
        28
      ],
      "backdrop_path": "/7FIh52gySnFC11HluVcaPkBjPit.jpg",
      "adult": false,
      "overview": "1930 год. Группа исследователей отправилась на таинственный Остров Черепа, чтобы изучить легенды о гигантской горилле, прозванной Конг. Неожиданно они обнаруживают, что Король Конг - реальное существо, живущее в массивных джунглях, где сохранились и в течение миллионов лет были скрыты доисторические существа. Но в поисках 25-футовой обезьяны, исследователи сталкиваются не только с Кинг Конгом, но и его врагами - динозаврами. Только участие красивой женщины помогает экспедиции утихомирить уникальную гориллу и привезти её в Нью-Йорк. Но вряд ли Кинг Конгу понравятся клетка и кандалы.",
      "release_date": "2005-12-12"
    },
    {
      "vote_count": 7720,
      "id": 8587,
      "video": false,
      "vote_average": 8.1,
      "title": "Король Лев",
      "popularity": 21.148,
      "poster_path": "/j8tdiuhbF9p5mnAeA1YOUvz82xY.jpg",
      "original_language": "en",
      "original_title": "The Lion King",
      "genre_ids": [
        10751,
        16,
        18
      ],
      "backdrop_path": "/6lL49SOgBtqiXMs7Y5HWBYH3X9Z.jpg",
      "adult": false,
      "overview": "У величественного Короля-Льва Муфасы рождается наследник по имени Симба. Уже в детстве любознательный малыш становится жертвой интриг своего завистливого дяди Шрама, мечтающего о власти.Симба познаёт горе утраты, предательство и изгнание, но в конце концов обретает верных друзей и находит любимую. Закалённый испытаниями, он в нелёгкой борьбе отвоёвывает своё законное место в «Круге жизни», осознав, что значит быть настоящим Королём.",
      "release_date": "1994-06-23"
    },
    {
      "vote_count": 489,
      "id": 244,
      "video": false,
      "vote_average": 7.7,
      "title": "Кинг Конг",
      "popularity": 9.265,
      "poster_path": "/vXInYahVp31uL8wZORckaoHq565.jpg",
      "original_language": "en",
      "original_title": "King Kong",
      "genre_ids": [
        28,
        12,
        18,
        27,
        878
      ],
      "backdrop_path": "/ke4r46wgmL1WUac1cOgjSsHLqwE.jpg",
      "adult": false,
      "overview": "Интересно смотреть на эту ленту с высоты прошедших лет, и с удивлением отмечать высокое мастерство спецэффектов, грамотную режиссуру и добротный сценарий. Начинаются приключения с того, что на отдаленном, диком острове научная экспедиция захватывает громадную человекообразную обезьяну и, не мудрствуя лукаво, привозит ее в Нью-Йорк для показа праздной публике. Кто бы мог подумать, что этот жуткий монстр, способен на такое тонкое чувство, как любовь - эта чертова обезьяна, жить не может без миниатюрной и нежной главной героини...",
      "release_date": "1933-04-07"
    },
    {
      "vote_count": 1152,
      "id": 9477,
      "video": false,
      "vote_average": 6.1,
      "title": "Король Артур",
      "popularity": 8.553,
      "poster_path": "/nvrZSdjTyJoClhPNf2jt5yZV2Zl.jpg",
      "original_language": "en",
      "original_title": "King Arthur",
      "genre_ids": [
        12,
        10752,
        36
      ],
      "backdrop_path": "/u633783ZPMkQamBwp5fliTO34jR.jpg",
      "adult": false,
      "overview": "Фильм о легендарной исторической личности. В нем большое внимание уделено историческим фактам и политическим событиям, имевшим место в период правления короля Артура. Но картина обещает совместить в себе как реальные исторические события, имевшие место в провинции Британия сразу после распада Великой Римской Империи, так и мифы о подвигах рыцарей короля Артура…",
      "release_date": "2004-07-07"
    },
    {
      "vote_count": 1166,
      "id": 9334,
      "video": false,
      "vote_average": 5.3,
      "title": "Царь скорпионов",
      "popularity": 14.509,
      "poster_path": "/2q2r40CuIx3LpnZiW9IBYMqkQv8.jpg",
      "original_language": "en",
      "original_title": "The Scorpion King",
      "genre_ids": [
        28,
        14,
        12,
        878
      ],
      "backdrop_path": "/sP386SaCMTCz9ixvHpZtra0df49.jpg",
      "adult": false,
      "overview": "Еще задолго до того, как были возведены египетские пирамиды, с востока пришел дерзкий и безжалостный завоеватель с ордами кровожадных воинов. Древние земли не устояли перед натиском свирепого захватчика и покорились ему... И когда мир погрузился во мрак и бесправие, лишь один человек отважился бросить вызов злу. Он не был благородным героем: некогда он состоял в клане наемных убийц, и в жилах его текла кровь скорпионов. Но именно ему суждено было стать великим Царем - защитником слабых и отважным освободителем!",
      "release_date": "2002-04-18"
    },
    {
      "vote_count": 193,
      "id": 390584,
      "video": false,
      "vote_average": 5.9,
      "title": "Королевская кобра",
      "popularity": 6.985,
      "poster_path": "/4FkAZeJlFAsu1FrvwNLAaKObDfp.jpg",
      "original_language": "en",
      "original_title": "King Cobra",
      "genre_ids": [
        80,
        18
      ],
      "backdrop_path": "/gGZ1DHUaF6pv86pBnyDLr2bM37R.jpg",
      "adult": false,
      "overview": "Правдивая история об ожесточенном соперничестве порно-продюсеров за горячую звезду Брента Корригана. Когда молодой красавец-гей начинает приносить студии Cobra Video баснословную прибыль, появляются охотники заполучить актера любыми способами, пусть даже кровавыми.\r Фильм, снят по книге \"Убийца Кобры\" Эндрю Э. Стоунера и Питера А. Конвей.",
      "release_date": "2016-12-01"
    },
    {
      "vote_count": 260,
      "id": 10730,
      "video": false,
      "vote_average": 5.9,
      "title": "Кинг Конг",
      "popularity": 6.619,
      "poster_path": "/lyMgOphIY5iMASdzew7Fju1dSNC.jpg",
      "original_language": "en",
      "original_title": "King Kong",
      "genre_ids": [
        12,
        18
      ],
      "backdrop_path": "/ydiIbLKBH1bpDd9HJRKSa1RIkIF.jpg",
      "adult": false,
      "overview": "Нефтеразведочная экспедиция компании «Petrox», к которой хитростью присоединился палеонтолог и защитник природы Джек Прескотт, отправляется на малоизученный тихоокеанский остров. По пути экспедиция спасает потерпевшую кораблекрушение голливудскую звезду Доун. На острове нефтяники сталкиваются с гигантской гориллой, которую местные жители называют Конг. Обезьяна похищает Доун, но Прескотту удаётся её освободить. Руководитель экспедиции решает, что раз уж нефти на острове найти не удалось, то можно вывезти с него хотя бы обезьяну и заработать, показывая её нью-йоркской публике. Однако во время первого же представления Конг освобождается и начинает крушить всё на своём пути…",
      "release_date": "1976-09-08"
    },
    {
      "vote_count": 1095,
      "id": 11430,
      "video": false,
      "vote_average": 6.4,
      "title": "Король Лев 3: Акуна Матата",
      "popularity": 12.319,
      "poster_path": "/woAzGekFm82WX0YK3t0AT5Hlp9L.jpg",
      "original_language": "en",
      "original_title": "The Lion King 1½",
      "genre_ids": [
        16,
        35,
        10751
      ],
      "backdrop_path": "/pql1l2FPU5e4nPxoY2TbYaPwjLj.jpg",
      "adult": false,
      "overview": "Главными героями мультфильма станут всеобщие любимцы Тимон и Пумба! Вы узнаете об этих закадычных друзьях много нового, например, о том, как они впервые встретились, что за потрясающие приключения вместе прожили и на какие удивительные подвиги их сподвигло знаменитое знакомство с будущем королем саванны Симбой.  А также познакомитесь с новыми забавными героями, которые точно не дадут вам скучать — заботливой мамочкой Тимона и его ужасно саркастичным дядей Максом! Скучно не будет!",
      "release_date": "2004-02-06"
    },
    {
      "vote_count": 112,
      "id": 10804,
      "video": false,
      "vote_average": 5.2,
      "title": "Король Ральф",
      "popularity": 5.522,
      "poster_path": "/8KQsiOp2nXf9Vrf6S8MByH9XeG6.jpg",
      "original_language": "en",
      "original_title": "King Ralph",
      "genre_ids": [
        35,
        10751
      ],
      "backdrop_path": "/mfLqw82LyQz5ZX6644u7H1uiM8n.jpg",
      "adult": false,
      "overview": "К ужасу всей Великобритании, выясняется, что единственный наследник опустевшего престола — жирный любитель гамбургеров из Америки по фамилии Ральф, который совершенно не представляет, что это такое — быть настоящим королем.",
      "release_date": "1991-02-15"
    },
    {
      "vote_count": 475,
      "id": 262,
      "video": false,
      "vote_average": 7.6,
      "title": "Король комедии",
      "popularity": 8.041,
      "poster_path": "/4tDIPaXdumEPAz8ShbD1zt35Fuq.jpg",
      "original_language": "en",
      "original_title": "The King of Comedy",
      "genre_ids": [
        35,
        18
      ],
      "backdrop_path": "/rlWOOdefsyVMbWDYVMsiIb9c47E.jpg",
      "adult": false,
      "overview": "Неутомимый неудачник Руперт Папкин уверен, что он призван быть гениальным юмористом. Вопреки полному отсутствию таланта, он точно знает, что его ждет немеркнущая слава блистательного шоумена. Нужно лишь один разок выступить перед зрителями — и он станет звездой.  Решив начать свою карьеру с самого верха, Руперт осаждает популярнейшего ведущего «Вечернего шоу» Джерри Лэнгфорда, чтобы тот позволил ему выступить в своей передаче. Но легендарный комик не желает иметь ничего общего с этим самоуверенным бездарем.  Получая отказ за отказом, Руперт, в конце концов, решается на отчаянный шаг, не сомневаясь, что теперь-то весь мир узнает о нем…",
      "release_date": "1982-12-18"
    },
    {
      "vote_count": 293,
      "id": 16366,
      "video": false,
      "vote_average": 6.3,
      "title": "Царь сновидений",
      "popularity": 7.753,
      "poster_path": "/hFnTrIhv6eq1vR4oD64oDnVjV4B.jpg",
      "original_language": "en",
      "original_title": "Joseph: King of Dreams",
      "genre_ids": [
        10402,
        10751,
        16
      ],
      "backdrop_path": "/p5WF1vmFwTrdNlx6Z7mt5ksnG7W.jpg",
      "adult": false,
      "overview": "Cоздатели полнометражного мультфильма-блокбастера \"Принц Египта\", получившего премию Американской Киноакадемии \"Оскар\", представляют Вам новую, замечательную, анимационную картину для всей семьи. Компания Стивена Спилберга \"DreamWorks\" неизменно радует нас восхитительными мультфильмами: \"Муравей Антц\", \"Дорога на Эльдорадо\" и лауреат \"Оскара\", непревзойденный \"Шрек\". И, надо заметить, что это чудесная картина - не исключение! Как всегда Вас ждет прекрасная музыка, великолепная анимация и потрясающая история! Рассказ пойдет о чудо-юноше, который наделен удивительным даром видеть будущее и объяснять сны...",
      "release_date": "2000-11-07"
    },
    {
      "vote_count": 142,
      "id": 16520,
      "video": false,
      "vote_average": 7.3,
      "title": "Король и я",
      "popularity": 5.934,
      "poster_path": "/1kR3VCesxWAnXImzQgKSTnWlyLn.jpg",
      "original_language": "en",
      "original_title": "The King and I",
      "genre_ids": [
        18,
        10749,
        12
      ],
      "backdrop_path": "/13PAHc8M0hXFqKN3xeZJPHFQXDa.jpg",
      "adult": false,
      "overview": "История об английской учительнице, Анне Леоноуэнс, которая приезжает в Сиам 60-х годов XIX века, чтобы преподавать членам королевской семьи. Поначалу Анне приходится преодолевать упрямство монарха, но со временем и король, и Анна отказываются от попытки переделать друг друга и приходят к взаимопониманию.",
      "release_date": "1956-06-29"
    },
    {
      "vote_count": 0,
      "id": 533839,
      "video": false,
      "vote_average": 0,
      "title": "King Skate",
      "popularity": 2.591,
      "poster_path": "/nCiaiyFbJxShluQ3BH9T3e3JHhI.jpg",
      "original_language": "cs",
      "original_title": "King Skate",
      "genre_ids": [
        99
      ],
      "backdrop_path": null,
      "adult": false,
      "overview": "",
      "release_date": "2018-07-02"
    },
    {
      "vote_count": 130,
      "id": 301355,
      "video": false,
      "vote_average": 6.3,
      "title": "Послание от Кинга",
      "popularity": 6.781,
      "poster_path": "/6BxIqK8xwlwRXEpkNYEk2tWuZqR.jpg",
      "original_language": "en",
      "original_title": "Message from the King",
      "genre_ids": [
        53
      ],
      "backdrop_path": "/gkBaeafV5wBUnnb1EZct5kqQm2Z.jpg",
      "adult": false,
      "overview": "После потери контакта с младшей сестрой Джейкоб Кинг прибывает из Южной Африки в Лос-Анджелес, чтобы непременно её разыскать. В течение двадцати четырех часов он находит свидетельства того, какой была её жизнь в этом месте — секс, наркотики и подлая уязвимость пресловутого Города Ангелов.",
      "release_date": "2017-05-10"
    },
    {
      "vote_count": 210,
      "id": 13486,
      "video": false,
      "vote_average": 4.1,
      "title": "Царь скорпионов 2: Восхождение воина",
      "popularity": 17.162,
      "poster_path": "/4IDw6jO0UjqkyRditlSB0kN434H.jpg",
      "original_language": "en",
      "original_title": "The Scorpion King: Rise of a Warrior",
      "genre_ids": [
        14,
        28,
        12,
        878
      ],
      "backdrop_path": "/3K2e6Rn4B00T6VV3tl8BaQYJ3q0.jpg",
      "adult": false,
      "overview": "Молодой Масьюз видит смерть своего отца, самого великого воина его народа. Всем известно кто убил его. Годы проходят и Масьюз становится воином Черным Скорпионом, готовым служить своему царю, человеку, что убил его отца. Как его остановить, если царь — владеет черной магией и поддержкой Богини Смерти.Масьюз встретится с Минотавром и попадет в Подземный мир и все ради мести.",
      "release_date": "2008-07-19"
    },
    {
      "vote_count": 293,
      "id": 1439,
      "video": false,
      "vote_average": 6.6,
      "title": "Анна и король",
      "popularity": 5.689,
      "poster_path": "/dXKcAopBNGEi9o8eDlmC6laupN2.jpg",
      "original_language": "en",
      "original_title": "Anna and the King",
      "genre_ids": [
        18,
        36,
        10749
      ],
      "backdrop_path": "/5E6WPMQDWP9910ZyiGhLCxFdIpj.jpg",
      "adult": false,
      "overview": "Школьная учительница из Англии Анна Леоноуэнс приехала учить детей короля Монгкута в экзотический Сиам. И неожиданно западная чувственность сталкивается с психологией восточного владыки. Напряжение нарастает по мере того, как Монгкут узнает о готовящемся против него и его режима заговоре. Когда политическая ситуация готова взорваться, для Анны и Короля остается только один выход — стать союзниками в отважной борьбе за спасение Сиама от могущественных врагов, жаждущих его разрушения…",
      "release_date": "1999-12-16"
    },
    {
      "vote_count": 137,
      "id": 9838,
      "video": false,
      "vote_average": 5.2,
      "title": "Копи царя Соломона",
      "popularity": 5.197,
      "poster_path": "/wNjXdgbYNvfdlcGQyDP1I7P3KSw.jpg",
      "original_language": "en",
      "original_title": "King Solomon's Mines",
      "genre_ids": [
        28,
        12,
        35
      ],
      "backdrop_path": "/nkXqmkJKHY0R2VDrePbJCDkm91J.jpg",
      "adult": false,
      "overview": "Отец главной героини отправляется на поиски бриллиантовых копей царя Соломона и пропадает без вести. Очаровательная Джесси Хьюстон затевает рискованное сафари для его спасения. Кто же будет ее проводником? Легендарный солдат удачи, известный как Куотермейн. Чтобы добраться до сокровищ и опередить кровожадного соперника, им приходится преодолеть множество препятствий: от голодных каннибалов и гигантских пауков до зыбучих песков и озер бурлящей лавы. Но нет преград, способных остановить любящие сердца!",
      "release_date": "1985-03-20"
    },
    {
      "vote_count": 10511,
      "id": 122,
      "video": false,
      "vote_average": 8.3,
      "title": "Властелин колец: Возвращение Короля",
      "popularity": 31.321,
      "poster_path": "/aRojIU7zpIqAqiM9Wuj4DX6ALKP.jpg",
      "original_language": "en",
      "original_title": "The Lord of the Rings: The Return of the King",
      "genre_ids": [
        12,
        14,
        28
      ],
      "backdrop_path": "/9DeGfFIqjph5CBFVQrD6wv9S7rR.jpg",
      "adult": false,
      "overview": "Последняя часть трилогии о Кольце Всевластия и о героях, взявших на себя бремя спасения Средиземья. Повелитель сил Тьмы Саурон направляет свои бесчисленные рати под стены Минас-Тирита, крепости Последней Надежды. Он предвкушает близкую победу, но именно это и мешает ему заметить две крохотные фигурки — хоббитов, приближающихся к Роковой Горе, где им предстоит уничтожить Кольцо Всевластия. Улыбнется ли им счастье?..",
      "release_date": "2003-12-01"
    },
    {
      "vote_count": 2516,
      "id": 274857,
      "video": false,
      "vote_average": 6.5,
      "title": "Меч короля Артура",
      "popularity": 15.125,
      "poster_path": "/pR5liuSzUesiYhe80yTpigUce73.jpg",
      "original_language": "en",
      "original_title": "King Arthur: Legend of the Sword",
      "genre_ids": [
        28,
        18,
        14
      ],
      "backdrop_path": "/sVkjgKq8cwKm95LCyfrLldLbQIG.jpg",
      "adult": false,
      "overview": "Молодой Артур живёт на задворках Лондиниума вместе со своей бандой. Он и понятия не имел о своём королевском происхождении, пока однажды не взял в руки меч Эскалибур. Меч начинает менять Артура. В результате он присоединяется к сопротивлению и таинственной молодой девушке по имени Гвиневра. Ему предстоит научиться понимать магическое оружие, которым он овладел, столкнуться со своими собственными демонами и объединить народ в борьбе против диктатора Вортигерна, убившего его родителей и завладевшего короной.",
      "release_date": "2017-05-10"
    },
    {
      "vote_count": 1603,
      "id": 9732,
      "video": false,
      "vote_average": 6.8,
      "title": "Король Лев 2: Гордость Симбы",
      "popularity": 13.771,
      "poster_path": "/okjjwG3PtQkElddYGkmWuRKaLCg.jpg",
      "original_language": "en",
      "original_title": "The Lion King 2: Simba's Pride",
      "genre_ids": [
        12,
        16,
        10751
      ],
      "backdrop_path": "/mOXpgCVPy43L3Sbq9keft6VSQ7O.jpg",
      "adult": false,
      "overview": "Много времени утекло с тех пор, как лев Симба сверг своего злого дядю Шрама и вернул трон короля саванны. У него и королевы Налы уже подрастает дочь — принцесса Киара.Однако порученная легкомысленным заботам наших старых знакомых Тимона и Пумбы, проказливая и непослушная Киара пока никак не похожа на будущую королеву. Однажды сбежав в Запретную Землю, она встречает там львенка Кову, который становится ее лучшим другом.Да только принцесса не знает, что эта дружба может стоить ей короны! Кову — наследник Шрама, и пусть он не пошел в старого интригана, его мать Зира спит и видит, как бы усадить сына на трон.И чем прочнее дружба между Киарой и Кову, тем гуще тучи над племенем Симбы...",
      "release_date": "1998-10-24"
    }
  ]
}