{
  "page": 1,
  "total_results": 7597,
  "total_pages": 380,
  "results": [
    {
      "vote_count": 1723,
      "id": 19404,
      "video": false,
      "vote_average": 9.3,
      "title": "Непохищенная невеста",
      "popularity": 14.536,
      "poster_path": "/sctBFkLHYYqaHHNJj7r1jSOkfB9.jpg",
      "original_language": "hi",
      "original_title": "दिलवाले दुल्हनिया ले जायेंगे",
      "genre_ids": [
        35,
        18,
        10749
      ],
      "backdrop_path": "/nl79FQ8xWZkhL3rDr1v2RFFR6J0.jpg",
      "adult": false,
      "overview": "Двадцать лет тому назад Балдев Синг эмигрирует в Англию и оседает в Лондоне вместе с семьёй. Но даже после столь продолжительного проживания на чужбине он сохраняет приверженность национальным традициям и планирует выдать замуж старшую дочь Симран за сына старого друга, живущего в Пенджабе. Незадолго перед помолвкой Симран знакомится с весельчаком и балагуром Раджом.  Симран очень симпатичен Радж, но она далеко не сразу осознаёт, что под маской беззаботности скрывается преданная и любящая её душа. Когда молодые люди наконец-то понимают, что любят друг друга, уже поздно, приготовления к помолвке невозможно остановить. Единственная возможность избежать непоправимого — бежать, но Радж убежден, что им в жизни не будет счастья без благословения родителей Симран…",
      "release_date": "1995-10-20"
    },
    {
      "vote_count": 10468,
      "id": 278,
      "video": false,
      "vote_average": 8.6,
      "title": "Побег из Шоушенка",
      "popularity": 27.977,
      "poster_path": "/sRBNv6399ZpCE4RrM8tRsDLSsaG.jpg",
      "original_language": "en",
      "original_title": "The Shawshank Redemption",
      "genre_ids": [
        18,
        80
      ],
      "backdrop_path": "/j9XKiZrVeViAixVRzCta7h1VU9W.jpg",
      "adult": false,
      "overview": "Фильм удостоен шести номинаций на `Оскар`, в том числе и как лучший фильм года. Шоушенк - название тюрьмы. И если тебе нет еще 30-ти, а ты получаешь пожизненное, то приготовься к худшему: для тебя выхода из Шоушенка не будет! Актриса Рита Хэйворт - любимица всей Америки. Энди Дифрейну она тоже очень нравилась. Рита никогда не слышала о существовании Энди, однако жизнь Дифрейну, бывшему вице-президенту крупного банка, осужденному за убийство жены и ее любовника, Рита Хэйворт все-таки спасла.",
      "release_date": "1994-09-23"
    },
    {
      "vote_count": 7970,
      "id": 238,
      "video": false,
      "vote_average": 8.6,
      "title": "Крестный отец",
      "popularity": 17.577,
      "poster_path": "/gZUc6DbAirZGWJL1685jsOd90Sf.jpg",
      "original_language": "en",
      "original_title": "The Godfather",
      "genre_ids": [
        18,
        80
      ],
      "backdrop_path": "/6xKCYgH16UuwEGAyroLU6p8HLIn.jpg",
      "adult": false,
      "overview": "Криминальная сага, повествующая о нью-йоркской сицилийской мафиозной семье Корлеоне. Фильм охватывает период 1945—1955 годов.Глава семьи, Дон Вито Корлеоне, выдаёт замуж свою дочь. В это время со Второй мировой войны возвращается его любимый сын Майкл. Майкл, герой войны, гордость семьи, не выражает желания заняться жестоким семейным бизнесом. Дон Корлеоне ведёт дела по старым правилам, но наступают иные времена, и появляются люди, желающие изменить сложившиеся порядки. На Дона Корлеоне совершается покушение.",
      "release_date": "1972-03-14"
    },
    {
      "vote_count": 2526,
      "id": 372058,
      "video": false,
      "vote_average": 8.5,
      "title": "Твоё имя",
      "popularity": 21.492,
      "poster_path": "/6qXpomLXhRYpSOg1ZGaAIr81GkH.jpg",
      "original_language": "ja",
      "original_title": "君の名は。",
      "genre_ids": [
        10749,
        16,
        18
      ],
      "backdrop_path": "/7OMAfDJikBxItZBIug0NJig5DHD.jpg",
      "adult": false,
      "overview": "События фильма происходят спустя месяц после того, как в Японии, впервые за тысячу лет, упала комета. В центре сюжета «истории о чудесах и любви» оказываются Мицуха и Таки. Мицуха — старшеклассница из провинциального городка, затерянного в горах. Её отец — местный мэр, который редко бывает дома, так что большую часть времени она живёт с младшей сестрой, учащейся в начальной школе, и бабушкой. Мицуха — честная девушка, но ей не нравятся обычаи её семейного синтоистского храма и тот факт, что отец опять участвует в выборах. И вообще, её не прельщает жизнь в сельской местности, вместо этого она мечтает о чудесах большого Токио. И однажды ей снится, что она парень из столицы... Таки — старшеклассник, живущий в центре Токио. Он общается с друзьями и работает на полставки в итальянском ресторане, интересуется архитектурой и прочими изящными искусствами. Однажды Таки видит сон, в котором он оказывается школьницей из горного городка, в котором никогда не бывал...",
      "release_date": "2016-08-26"
    },
    {
      "vote_count": 5568,
      "id": 129,
      "video": false,
      "vote_average": 8.5,
      "title": "Унесённые призраками",
      "popularity": 20.731,
      "poster_path": "/5tHJGgjCf96Uli8v12VdwCkYq1g.jpg",
      "original_language": "ja",
      "original_title": "千と千尋の神隠し",
      "genre_ids": [
        16,
        10751,
        14
      ],
      "backdrop_path": "/djgM2d3e42p9GFQObg6lwK2SVw2.jpg",
      "adult": false,
      "overview": "Маленькая Тихиро вместе с мамой и папой переезжают в новый дом. Заблудившись по дороге, они оказываются в странном пустынном городе, где их ждет великолепный пир. Родители с жадностью набрасываются на еду и к ужасу девочки превращаются в свиней, став пленниками злой колдуньи Юбабы, властительницы таинственного мира древних богов и могущественных духов. Теперь, оказавшись одна среди магических существ и загадочных видений, отважная Тихиро должна придумать, как избавить своих родителей от чар коварной старухи и спастись из пугающего царства призраков…",
      "release_date": "2001-07-20"
    },
    {
      "vote_count": 4608,
      "id": 240,
      "video": false,
      "vote_average": 8.5,
      "title": "Крестный отец 2",
      "popularity": 16.422,
      "poster_path": "/jDaC944dvUc1a4M1vp0oSW1XDak.jpg",
      "original_language": "en",
      "original_title": "The Godfather: Part II",
      "genre_ids": [
        18,
        80
      ],
      "backdrop_path": "/gLbBRyS7MBrmVUNce91Hmx9vzqI.jpg",
      "adult": false,
      "overview": "В центре драмы представители нового поколения гангстерского клана — дона Корлеоне и его сына, для которых не существует моральных преград на пути достижения поставленых целей. Они превращают мафию, построенную по патриархальным, еще сицилийским законам, в весьма прагматичную, жесткую корпорацию, плавно интегрирующуюся в большой бизнес Америки.",
      "release_date": "1974-12-20"
    },
    {
      "vote_count": 6039,
      "id": 424,
      "video": false,
      "vote_average": 8.4,
      "title": "Список Шиндлера",
      "popularity": 17.543,
      "poster_path": "/4K8fGGcJP2EoGDucILnaJcOJhZl.jpg",
      "original_language": "en",
      "original_title": "Schindler's List",
      "genre_ids": [
        18,
        36,
        10752
      ],
      "backdrop_path": "/cTNYRUTXkBgPH3wP3kmPUB5U6dA.jpg",
      "adult": false,
      "overview": "Лента рассказывает реальную историю загадочного Оскара Шиндлера, члена нацистской партии, преуспевающего фабриканта, спасшего во время Второй мировой войны более тысячи ста евреев. Это триумф одного человека, не похожего на других, и драма тех, кто, благодаря ему, выжил в ужасный период человеческой истории.",
      "release_date": "1993-12-15"
    },
    {
      "vote_count": 102,
      "id": 20532,
      "video": false,
      "vote_average": 8.4,
      "title": "Управляющий Сансё",
      "popularity": 5.858,
      "poster_path": "/deBjt3LT3UQHRXiNX1fu28lAtK6.jpg",
      "original_language": "ja",
      "original_title": "山椒大夫",
      "genre_ids": [
        18
      ],
      "backdrop_path": "/keaFMNUr1OpdHzPWJ0qeDP8hrO8.jpg",
      "adult": false,
      "overview": "Действие происходит в средневековой Японии. Мидзогути рассказывает историю о женщине и двух ее детях, попавших к работорговцам; о нелегкой судьбе ее детей и о тех трудностях, которые им пришлось пережить, соблюдая заветы отца.",
      "release_date": "1954-03-31"
    },
    {
      "vote_count": 187,
      "id": 14537,
      "video": false,
      "vote_average": 8.4,
      "title": "Харакири",
      "popularity": 10.549,
      "poster_path": "/5konZnIbcAxZjP616Cz5o9bKEfW.jpg",
      "original_language": "ja",
      "original_title": "切腹",
      "genre_ids": [
        28,
        18,
        36
      ],
      "backdrop_path": "/dT51Ul1GN5HSOVokDnnCk54VkdA.jpg",
      "adult": false,
      "overview": "После распада своего клана, безработный самурай Хансиро Цугумо прибыл в поместье лорда Ию, с просьбой совершить харакири в его имении.  Члены клана Ию, полагая что отчаявшийся ронин просто уповает на милостыню, пытаются заставить его совершить харакири, но они его сильно недооценивают.",
      "release_date": "1962-09-15"
    },
    {
      "vote_count": 5384,
      "id": 637,
      "video": false,
      "vote_average": 8.4,
      "title": "Жизнь прекрасна",
      "popularity": 16.674,
      "poster_path": "/4CfBbnmjyXANupnKmC0OimKhiQI.jpg",
      "original_language": "it",
      "original_title": "La vita è bella",
      "genre_ids": [
        35,
        18
      ],
      "backdrop_path": "/bORe0eI72D874TMawOOFvqWS6Xe.jpg",
      "adult": false,
      "overview": "Во время II Мировой войны в Италии в концлагерь были отправлены евреи, отец и его маленький сын. Жена, итальянка, добровольно последовала вслед за ними. В лагере отец сказал сыну, что все происходящее вокруг является очень большой игрой за приз в настоящий танк, который достанется тому мальчику, который сможет не попасться на глаза надзирателям. Он сделал все, чтобы сын поверил в игру и остался жив, прячась в бараке.",
      "release_date": "1997-12-20"
    },
    {
      "vote_count": 5988,
      "id": 497,
      "video": false,
      "vote_average": 8.4,
      "title": "Зелёная миля",
      "popularity": 15.947,
      "poster_path": "/eL8WZ72WTELjXRhUeYKglmqspOw.jpg",
      "original_language": "en",
      "original_title": "The Green Mile",
      "genre_ids": [
        14,
        18,
        80
      ],
      "backdrop_path": "/Rlt20sEbOQKPVjia7lUilFm49W.jpg",
      "adult": false,
      "overview": "Обвиненный в страшном преступлении, Джон Коффи оказывается в блоке смертников тюрьмы «Холодная гора». Вновь прибывший обладал поразительным ростом и был пугающе спокоен, что, впрочем, никак не влияло на отношение к нему начальника блока Пола Эджкомба, привыкшего исполнять приговор. Гигант удивил всех позже, когда выяснилось, что он обладает невероятной магической силой...",
      "release_date": "1999-12-10"
    },
    {
      "vote_count": 11760,
      "id": 680,
      "video": false,
      "vote_average": 8.4,
      "title": "Криминальное чтиво",
      "popularity": 27.302,
      "poster_path": "/tEfPt3FQ1on0DLRM3QOlliLc9Lk.jpg",
      "original_language": "en",
      "original_title": "Pulp Fiction",
      "genre_ids": [
        53,
        80
      ],
      "backdrop_path": "/4cDFJr4HnXN5AdPw4AKrmLlMWdO.jpg",
      "adult": false,
      "overview": "Двое бандитов Винсент Вега и Джулс Винфилд проводят время в философских беседах в перерыве между разборками и «решением проблем» с должниками своего криминального босса Марселласа Уоллеса. Параллельно разворачивается три истории. В первой из них Винсент присматривает за женой Марселласа Мией и спасает ее от передозировки наркотиков. Во второй рассказывается о Бутче Кулидже, боксере, нанятом Уоллесом, чтобы сдать бой, но обманувшим его.",
      "release_date": "1994-09-10"
    },
    {
      "vote_count": 5489,
      "id": 299536,
      "video": false,
      "vote_average": 8.4,
      "title": "Мстители: Война бесконечности",
      "popularity": 130.363,
      "poster_path": "/qIUFg6tzKeK5bUDguonWCAFceNB.jpg",
      "original_language": "en",
      "original_title": "Avengers: Infinity War",
      "genre_ids": [
        12,
        878,
        14,
        28
      ],
      "backdrop_path": "/bOGkgRGdhrBYJSLpXaxhXVstddV.jpg",
      "adult": false,
      "overview": "Пока Мстители и их союзники продолжают защищать мир от различных опасностей, с которыми не смог бы справиться один супергерой, новая угроза возникает из космоса: Танос. Межгалактический тиран преследует цель собрать все шесть Камней Бесконечности — артефакты невероятной силы, с помощью которых можно менять реальность по своему желанию. Всё, с чем Мстители сталкивались ранее, вело к этому моменту — судьба Земли никогда ещё не была столь неопределённой.",
      "release_date": "2018-04-25"
    },
    {
      "vote_count": 206,
      "id": 18491,
      "video": false,
      "vote_average": 8.4,
      "title": "Евангелион нового поколения: Конец Евангелиона",
      "popularity": 9.606,
      "poster_path": "/5JYzfyKBwReaQ41WFhqXgOZnPWV.jpg",
      "original_language": "ja",
      "original_title": "新世紀エヴァンゲリオン劇場版 THE END OF EVANGELION",
      "genre_ids": [
        18,
        878,
        16
      ],
      "backdrop_path": "/zCsHUIws5dy7xbwTntRnOQqaMTh.jpg",
      "adult": false,
      "overview": "Человечество – раса незавершенных, потерянных сущностей изыскала итог своего эволюционного развития. Проект «Комплементация Человечества» приведет нас к венцу творения, объединив разрозненные сущности в единое всецелое создание, в затопившем Вселенную пламени Черной Луны. Мир будет переплавлен! Это альтернативный финал, раскрывающий загадки 25-го и 26-го эпизодов, а также порождающий новые вопросы.",
      "release_date": "1997-07-19"
    },
    {
      "vote_count": 169,
      "id": 12493,
      "video": false,
      "vote_average": 8.4,
      "title": "Рай и ад",
      "popularity": 6.583,
      "poster_path": "/tgNjemQPG96uIezpiUiXFcer5ga.jpg",
      "original_language": "ja",
      "original_title": "天国と地獄",
      "genre_ids": [
        80,
        18,
        9648,
        53
      ],
      "backdrop_path": "/2xliq3zIrQPIWG66Fc0bgVoBUWc.jpg",
      "adult": false,
      "overview": "Преуспевающий бизнесмен, в решающий момент, должен решить для себя, заплатит ли он выкуп похитителям, которые по ошибке выкрали не его сына, а сынишку человека, работающего у него шофером.",
      "release_date": "1963-03-01"
    },
    {
      "vote_count": 1654,
      "id": 311,
      "video": false,
      "vote_average": 8.4,
      "title": "Однажды в Америке",
      "popularity": 13.12,
      "poster_path": "/kkwAF8MRDsp1Ram3l8WjxBK9PFk.jpg",
      "original_language": "en",
      "original_title": "Once Upon a Time in America",
      "genre_ids": [
        18,
        80
      ],
      "backdrop_path": "/vnT6HzjLSDrAweHn9xWykb8Ii6T.jpg",
      "adult": false,
      "overview": "В бурные двадцатые годы, когда Америка веселилась под звуки джаза и каждый бродяга мечтал стать миллионером, в трущобах Нью-Йорка встретились несколько отчаянных парней. Убирая с дороги конкурентов, безжалостно карая предателей и нагло проворачивая хитроумные аферы, они стали королями преступного мира золотой эры «сухого закона». Они поклялись отдать жизнь друг за друга, зная, что самое главное для них — это дружба, долг и справедливость — не утопить в реках крови и бездонном океане денег. Спустя много лет судьба жестоко обошлась с легендарными гангстерами, заставив их исполнить свою клятву. Это случилось однажды в Америке…",
      "release_date": "1984-05-23"
    },
    {
      "vote_count": 12889,
      "id": 550,
      "video": false,
      "vote_average": 8.4,
      "title": "Бойцовский клуб",
      "popularity": 26.359,
      "poster_path": "/hTjHSmQGiaUMyIx3Z25Q1iktCFD.jpg",
      "original_language": "en",
      "original_title": "Fight Club",
      "genre_ids": [
        18
      ],
      "backdrop_path": "/87hTDiay2N2qWyX4Ds7ybXi9h8I.jpg",
      "adult": false,
      "overview": "Терзаемый хронической бессоницей и отчаянно пытающийся вырваться из мучительно скучной жизни клерк встречает некоего Тайлера Дардена, харизматического торговца мылом с извращенной философией. Тайлер уверен, что самосовершенствование — удел слабых, а саморазрушение — единственное, ради чего стоит жить.",
      "release_date": "1999-10-15"
    },
    {
      "vote_count": 15341,
      "id": 155,
      "video": false,
      "vote_average": 8.4,
      "title": "Тёмный рыцарь",
      "popularity": 24.652,
      "poster_path": "/zHmfOXRgcUb2Sd79bttsZNokYbS.jpg",
      "original_language": "en",
      "original_title": "The Dark Knight",
      "genre_ids": [
        18,
        28,
        80,
        53
      ],
      "backdrop_path": "/hqkIcbrOHL86UncnHIsHVcVmzue.jpg",
      "adult": false,
      "overview": "Бэтмен поднимает ставки в войне с криминалом. С помощью лейтенанта Джима Гордона и прокурора Харви Дента он намерен очистить улицы от преступности, отравляющей город. Сотрудничество оказывается эффективным, но скоро они обнаружат себя посреди хаоса, развязанного восходящим криминальным гением, известным испуганным горожанам под именем Джокер.",
      "release_date": "2008-07-16"
    },
    {
      "vote_count": 3557,
      "id": 539,
      "video": false,
      "vote_average": 8.4,
      "title": "Психо",
      "popularity": 17.112,
      "poster_path": "/7dTAKbjjD0Mq4P4drYcmikEi6a8.jpg",
      "original_language": "en",
      "original_title": "Psycho",
      "genre_ids": [
        18,
        27,
        53
      ],
      "backdrop_path": "/3md49VBCeqY6MSNyAVY6d5eC6bA.jpg",
      "adult": false,
      "overview": "Девушка, недовольная романом с разведенным мужчиной, уделяющим ей внимание только наездами, крадет на работе крупную сумму денег и в спешке бежит из города. В мотеле, где она остановилась на ночь, ей приходится столкнуться с его молодым владельцем…",
      "release_date": "1960-06-16"
    },
    {
      "vote_count": 1448,
      "id": 12477,
      "video": false,
      "vote_average": 8.4,
      "title": "Могила светлячков",
      "popularity": 0.013,
      "poster_path": "/sBvc4ZPHC7BXkTPpTt8dla1xzaf.jpg",
      "original_language": "ja",
      "original_title": "火垂るの墓",
      "genre_ids": [
        16,
        18,
        10752
      ],
      "backdrop_path": "/fCUIuG7y4YKC3hofZ8wsj7zhCpR.jpg",
      "adult": false,
      "overview": "Последние дни Второй Мировой войны. Американская авиация бомбит беззащитные японские города. В водоворот людского каждодневного кошмара попадают 14-летнии Сэйта и его сестренка Сэцуко. Понеся самую горькую утрату — потерю близких, они остались совсем одни. Юный мальчик в одночасье становится взрослым, столкнувшись с жестокостью мира. Он осознаёт, что от него зависит жизнь его маленькой сестры. Укрывшись в заброшенном убежище, Сэйта и Сэцуко пытаются выжить, положившись только на свои силы. И пусть в глазах смертоносный огонь в небе — всего лишь огоньки светлячков, жестокая война не щадит даже невинные детские души, вынося им свой беспощадный приговор…",
      "release_date": "1988-04-16"
    }
  ]
}