{
  "results": [
    {
      "vote_count": 311,
      "id": 363088,
      "video": false,
      "vote_average": 7.2,
      "title": "Человек-муравей и Оса",
      "popularity": 204.317,
      "poster_path": "/nCriJDpTP8H1iIg5XumTm9LdBA6.jpg",
      "original_language": "en",
      "original_title": "Ant-Man and the Wasp",
      "genre_ids": [
        28,
        12,
        14,
        35,
        878
      ],
      "backdrop_path": "/6P3c80EOm7BodndGBUAJHHsHKrp.jpg",
      "adult": false,
      "overview": "Скотт Лэнг, известный также, как Человек-Муравей уже заслужил право оказаться в команде Мстителей, но желание быть ближе к собственной дочке удерживает его в родном Сан-Франциско — до тех пор, пока доктор Хэнк Пим, создавший когда-то изменяющий размеры своего владельца чудо-костюм, не призывает Скотта присоединиться к новой, опасной миссии. А помогать в противостоянии с коварным врагом Человеку-Муравью будет новая напарница — Оса.",
      "release_date": "2018-07-04"
    },
    {
      "vote_count": 904,
      "id": 260513,
      "video": false,
      "vote_average": 7.7,
      "title": "Суперсемейка 2",
      "popularity": 159.763,
      "poster_path": "/4nfcsGUwVQosKCBGb5SDTseitPl.jpg",
      "original_language": "en",
      "original_title": "Incredibles 2",
      "genre_ids": [
        28,
        12,
        16,
        10751
      ],
      "backdrop_path": "/mabuNsGJgRuCTuGqjFkWe1xdu19.jpg",
      "adult": false,
      "overview": "После событий первой части суперсемейка пользуется повышенным вниманием со стороны журналистов. Неожиданно оказалось, что обаятельная Миссис Исключительная гораздо лучше смотрится на экране телевизора, чем ее муж. Мистеру Исключительному все чаще приходится сидеть дома и приглядывать за детьми, у каждого из которых есть свои причины быть недовольным собственными суперспособностями. Однако семейным проблемам предстоит отступить на второй план, когда окажется, что спокойствию Суперсемейки угрожает новый могущественный враг.",
      "release_date": "2018-06-14"
    },
    {
      "vote_count": 130,
      "id": 442249,
      "video": false,
      "vote_average": 6.4,
      "title": "Судная ночь. Начало",
      "popularity": 97.314,
      "poster_path": "/i2S3IPfeob5TVTUgVPucpRmeBuY.jpg",
      "original_language": "en",
      "original_title": "The First Purge",
      "genre_ids": [
        28,
        27,
        878,
        53
      ],
      "backdrop_path": "/8FhHeKdeFIhf0pk4RkG1HqbhxRX.jpg",
      "adult": false,
      "overview": "Хотели бы вы жить в идеальном мире, где нет преступности, безработицы и войн? Единственная плата за такое счастливое будущее – это одна ночь абсолютного беззакония в году. Ночь, когда дозволено всё. Согласны поучаствовать в таком социальном эксперименте?",
      "release_date": "2018-07-04"
    },
    {
      "vote_count": 317,
      "id": 437557,
      "video": false,
      "vote_average": 6.2,
      "title": "Секса не будет!",
      "popularity": 61.246,
      "poster_path": "/srZVXPzTHCZu1G6j1OpnSZPPmNS.jpg",
      "original_language": "en",
      "original_title": "Blockers",
      "genre_ids": [
        35
      ],
      "backdrop_path": "/bUcHY7CrYWieikW8fFkL3Dxnt4H.jpg",
      "adult": false,
      "overview": "У трех подруг грандиозные планы на выпускной. Случайно об этом узнав, их родители решают во что бы то ни стало предотвратить непоправимое.",
      "release_date": "2018-03-14"
    },
    {
      "vote_count": 164,
      "id": 460668,
      "video": false,
      "vote_average": 6.3,
      "title": "Красотка на всю голову",
      "popularity": 52.009,
      "poster_path": "/eSJY093pNVonIi7Fs7u0wUSem10.jpg",
      "original_language": "en",
      "original_title": "I Feel Pretty",
      "genre_ids": [
        35
      ],
      "backdrop_path": "/eMO51xOIJYtlMZLpDUlrnq0mz8k.jpg",
      "adult": false,
      "overview": "Ее жизнь была сплошной чередой попыток похудеть. Однажды она бьется головой о велотренажер и обретает полную уверенность в том, что теперь она прекрасна. Только вот в глазах других людей она совсем не изменилась.",
      "release_date": "2018-04-19"
    },
    {
      "vote_count": 14,
      "id": 400155,
      "video": false,
      "vote_average": 7.4,
      "title": "Монстры на каникулах 3: Море зовёт",
      "popularity": 49.354,
      "poster_path": "/akKX1lqapIQxZR1pq6uL90MhOJm.jpg",
      "original_language": "en",
      "original_title": "Hotel Transylvania 3: Summer Vacation",
      "genre_ids": [
        10751,
        14,
        35,
        16
      ],
      "backdrop_path": "/m03jul0YdVEOFXEQVUv6pOVQYGL.jpg",
      "adult": false,
      "overview": "На этот раз Дракула вместе со своими друзьями отправляется в круиз на шикарном лайнере. Развлечения там на любой вкус: от монстробаскетбола и экзотических экскурсий, до лунных ванн. Неожиданно Дракула влюбляется в капитана корабля — загадочную и прекрасную Эрику, и его дочка Мэвис понимает, что поездка может превратиться в кошмар: ведь Эрика хранит ужасный секрет, который ставит под угрозу существование всех монстров!",
      "release_date": "2018-07-12"
    },
    {
      "vote_count": 7,
      "id": 353081,
      "video": false,
      "vote_average": 0,
      "title": "Миссия невыполнима: Последствия",
      "popularity": 47.784,
      "poster_path": "/kKwDswuveg56QHx5AnYwTCgoil2.jpg",
      "original_language": "en",
      "original_title": "Mission: Impossible - Fallout",
      "genre_ids": [
        12,
        28,
        53
      ],
      "backdrop_path": "/5qxePyMYDisLe8rJiBYX8HKEyv2.jpg",
      "adult": false,
      "overview": "Шестая часть знаменитой серии боевиков «Миссия: невыполнима». Итан Хант и его команда, а также недавно примкнувшие к ним союзники, вынуждены действовать наперегонки со временем, когда новая миссия идет не по плану.",
      "release_date": "2018-07-25"
    },
    {
      "vote_count": 113,
      "id": 400535,
      "video": false,
      "vote_average": 6.6,
      "title": "Убийца 2: Против всех",
      "popularity": 37.037,
      "poster_path": "/bDaspvC4WsuLkrU3Uy9zOYSdFhO.jpg",
      "original_language": "en",
      "original_title": "Sicario: Day of the Soldado",
      "genre_ids": [
        28,
        80,
        18,
        53
      ],
      "backdrop_path": "/uDRb7zVqtqMtXS8bnqYJ17SlhK8.jpg",
      "adult": false,
      "overview": "Фильм раскроет историю загадочного и мрачного мексиканца Алехандро Гиллике. Вместе с агентами ЦРУ он вскрывает «дыры» на границе США, которые дают путь для наркотрафика, нелегалов и даже для террористов.",
      "release_date": "2018-06-27"
    },
    {
      "vote_count": 521,
      "id": 402900,
      "video": false,
      "vote_average": 6.7,
      "title": "8 подруг Оушена",
      "popularity": 36.699,
      "poster_path": "/febaSytebwkMYqHozI0vlhhbrt4.jpg",
      "original_language": "en",
      "original_title": "Ocean's 8",
      "genre_ids": [
        80,
        35,
        28,
        53
      ],
      "backdrop_path": "/zBIfBeStaDdDdhBrSx8InhgFUVa.jpg",
      "adult": false,
      "overview": "Дэбби Оушен планирует совершить ограбление века во время ежегодного престижного бала. Для того, чтобы воплотить задумку в жизнь, она собирает команду из настоящих профи своего дела.",
      "release_date": "2018-06-07"
    },
    {
      "vote_count": 118,
      "id": 440471,
      "video": false,
      "vote_average": 4.5,
      "title": "План побега 2",
      "popularity": 36.557,
      "poster_path": "/f93jC3PQ480YWJw5c85CMezVUT3.jpg",
      "original_language": "en",
      "original_title": "Escape Plan 2: Hades",
      "genre_ids": [
        80,
        28,
        53
      ],
      "backdrop_path": "/xIAaN3AQqaJiN5RJ0WsmBady8Hq.jpg",
      "adult": false,
      "overview": "Рэй Бреслин готовится к новому испытанию. На этот раз ему предстоит вызволить из суперсовременной тюрьмы своего напарника.",
      "release_date": "2018-06-05"
    },
    {
      "vote_count": 310,
      "id": 493922,
      "video": false,
      "vote_average": 7.1,
      "title": "Реинкарнация",
      "popularity": 26.356,
      "poster_path": "/i6k1T8XYsTOR5wpFEuD75DDeaCE.jpg",
      "original_language": "en",
      "original_title": "Hereditary",
      "genre_ids": [
        27,
        18,
        9648,
        53
      ],
      "backdrop_path": "/yVWiOMpzf7gullGvug83r7gMdha.jpg",
      "adult": false,
      "overview": "С недавно потерявшей мать Энни Грэхем и ее родными начинают происходить страшные вещи. Женщина понимает, что разгадка ужасающего проклятия таится в далеком прошлом ее семейства.",
      "release_date": "2018-06-04"
    },
    {
      "vote_count": 95,
      "id": 455980,
      "video": false,
      "vote_average": 7.1,
      "title": "Ты водишь!",
      "popularity": 25.367,
      "poster_path": "/4GTpZgK5ijNGzJSB6tXjz8Xz7t2.jpg",
      "original_language": "en",
      "original_title": "Tag",
      "genre_ids": [
        35
      ],
      "backdrop_path": "/yRXzrwLfB5tDTIA3lSU9S3N9RUK.jpg",
      "adult": false,
      "overview": "Каждый год в течение месяца пять друзей участвуют в беспощадно-навороченной версии игры в «кошки-мышки». Они играют в нее с первого класса, чтобы, рискуя собственной шеей, работой и отношениями, одолеть противника с победоносным криком: «Ты водишь!» В этом году «кошки-мышки» приходятся на свадьбу единственного непобежденного игрока, что вроде как должно сделать из него легкую мишень. Но он знает, что они придут… и он готов.",
      "release_date": "2018-06-14"
    },
    {
      "vote_count": 155,
      "id": 425336,
      "video": false,
      "vote_average": 6.2,
      "title": "Эскобар",
      "popularity": 22.261,
      "poster_path": "/xttSYUPzRqrdwRSV9yNgknjS5Bl.jpg",
      "original_language": "es",
      "original_title": "Loving Pablo",
      "genre_ids": [
        80,
        18
      ],
      "backdrop_path": "/pcIXV6Od8KeDsLWKu7Wzthaur4V.jpg",
      "adult": false,
      "overview": "История восхождения Пабло Эскобара — его стремительного пути к миллиардам, могуществу и непростительным преступлениям. Во всесильного наркобарона влюбляется журналистка, чьи мемуары положены в основу фильма.",
      "release_date": "2017-10-12"
    },
    {
      "vote_count": 24,
      "id": 474335,
      "video": false,
      "vote_average": 6.6,
      "title": "Дядя Дрю",
      "popularity": 21.049,
      "poster_path": "/9lCNsfc1OEDNceGJTjfE0kBknEW.jpg",
      "original_language": "en",
      "original_title": "Uncle Drew",
      "genre_ids": [
        35
      ],
      "backdrop_path": "/604nkQ0s7ND7nrQorF0v9rSDpdf.jpg",
      "adult": false,
      "overview": "Дядя Дрю собирает команду пожилых баскетболистов, чтобы вернуться на площадку и принять участие в турнире.",
      "release_date": "2018-06-27"
    },
    {
      "vote_count": 5,
      "id": 476292,
      "video": false,
      "vote_average": 6.6,
      "title": "Укрась прощальное утро цветами обещания",
      "popularity": 20.722,
      "poster_path": "/g5qxxar0mAwzwTeS3afAhPNwL0A.jpg",
      "original_language": "ja",
      "original_title": "さよならの朝に約束の花をかざろう",
      "genre_ids": [
        16
      ],
      "backdrop_path": "/cfbjFQ14hSTgXChBEvaEjFiUaKb.jpg",
      "adult": false,
      "overview": "История о бессмертных людях, которые перестают взрослеть, достигнув подросткового возраста. Поселение таких людей подвергается атаке армии, жаждущей заполучить их кровь в качестве эликсира бессмертия.",
      "release_date": "2018-02-24"
    },
    {
      "vote_count": 64,
      "id": 430231,
      "video": false,
      "vote_average": 6.8,
      "title": "Паранормальное",
      "popularity": 20.69,
      "poster_path": "/uVHPBTLb6Sj1Eso9HzyBAOMRheM.jpg",
      "original_language": "en",
      "original_title": "The Endless",
      "genre_ids": [
        878,
        27,
        53
      ],
      "backdrop_path": "/zX0pEwk0zDnS85Nxl1hI6h6dfFu.jpg",
      "adult": false,
      "overview": "Ещё детьми братья Аарон и Джастин сбежали из секты. Теперь, уже взрослыми, они получают сообщение от своей бывшей «семьи» с угрозами и требованием вернуться. Братья начинают подозревать, что нечто сверхъестественное, во что верит культ, существует на самом деле.",
      "release_date": "2017-11-10"
    },
    {
      "vote_count": 0,
      "id": 345887,
      "video": false,
      "vote_average": 0,
      "title": "Великий уравнитель 2",
      "popularity": 15.729,
      "poster_path": "/cQvc9N6JiMVKqol3wcYrGshsIdZ.jpg",
      "original_language": "en",
      "original_title": "The Equalizer 2",
      "genre_ids": [
        53,
        28,
        80
      ],
      "backdrop_path": "/z6KLDE72SxE1A8JcJTmmnWArOvR.jpg",
      "adult": false,
      "overview": "Сюжет неизвестен. Продолжение к 2014 фильму «The Equalizer», который основан на телесериале об отставном агенте",
      "release_date": "2018-07-19"
    },
    {
      "vote_count": 0,
      "id": 458423,
      "video": false,
      "vote_average": 0,
      "title": "Мамма MIA! 2",
      "popularity": 13.332,
      "poster_path": "/vi8FfuLJjXCPACtC837DbBD66he.jpg",
      "original_language": "en",
      "original_title": "Mamma Mia! Here We Go Again",
      "genre_ids": [
        35,
        10749,
        10402
      ],
      "backdrop_path": "/8HKwxHZ23sW8wz4yb28IWnAM1M6.jpg",
      "adult": false,
      "overview": "Беременная Софи узнает много нового и неожиданного о прошлом своей матери.",
      "release_date": "2018-07-19"
    },
    {
      "vote_count": 0,
      "id": 513347,
      "video": false,
      "vote_average": 0,
      "title": "Вкусы молодости",
      "popularity": 13.265,
      "poster_path": "/jjbOH07nyVcEuJt9qvs9ANsRup1.jpg",
      "original_language": "zh",
      "original_title": "肆式青春",
      "genre_ids": [
        16,
        10749,
        18
      ],
      "backdrop_path": "/iRB6VKJuFd88bk20hvLqlDzi4kP.jpg",
      "adult": false,
      "overview": "Три отличных друг от друга истории о молодом поколении китайцев из разных уголков страны.",
      "release_date": "2018-08-04"
    },
    {
      "vote_count": 118,
      "id": 397722,
      "video": false,
      "vote_average": 6.4,
      "title": "Чистокровные",
      "popularity": 12.958,
      "poster_path": "/pIxZzTfITqBpZxbIGsV01DcoHsT.jpg",
      "original_language": "en",
      "original_title": "Thoroughbreds",
      "genre_ids": [
        18,
        53
      ],
      "backdrop_path": "/99Rd26ceIhonpOP5JoqcXYqnkD.jpg",
      "adult": false,
      "overview": "Дороги двух подруг из пригорода Коннектикута разошлись, и девушки не виделись несколько лет. Когда они снова встречаются, то решают восстановить свою былую дружбу. При более тесном общении девушки замечают, что они обе очень изменились, и даже стали способными на убийство.",
      "release_date": "2018-03-09"
    }
  ],
  "page": 1,
  "total_results": 193,
  "dates": {
    "maximum": "2018-08-04",
    "minimum": "2018-07-17"
  },
  "total_pages": 10
}